104.153.128.0/21
104.200.96.0/20
104.218.176.0/22
159.8.210.160/28
162.212.12.0/22
162.220.136.0/21
162.246.104.0/21
192.171.120.0/21
192.214.112.0/20
192.235.48.0/20
192.65.160.0/21
196.1.160.0/20
196.3.192.0/19
198.245.160.0/24
198.246.229.0/24
198.246.230.0/24
198.56.56.0/21
199.254.104.0/21
199.47.52.0/22
199.58.152.0/22
199.7.112.0/21
200.50.128.0/20
200.50.64.0/19
205.214.192.0/19
216.110.96.0/19
217.138.1.152/30
217.138.36.232/29
23.236.0.0/20
57.91.16.0/20
64.119.192.0/20
65.48.128.0/17
69.73.192.0/18
69.80.0.0/18
72.22.128.0/19
72.51.64.0/18
84.51.225.160/27
84.51.225.192/26
87.244.119.224/29
