105.235.0.0/17
154.0.24.0/21
154.68.0.0/18
154.73.100.0/22
159.122.237.72/29
160.120.0.0/16
160.154.0.0/15
164.160.32.0/22
164.160.40.0/22
169.239.64.0/22
193.251.131.120/29
193.251.138.8/29
193.251.138.16/28
193.251.138.32/27
193.251.138.64/26
193.251.138.128/26
193.251.138.192/27
193.251.138.224/28
193.251.138.240/29
193.251.138.248/30
193.251.161.112/28
193.251.161.128/25
196.10.122.0/23
196.180.0.0/14
196.201.64.0/19
196.216.226.0/23
196.223.4.0/24
196.41.75.0/24
196.47.128.0/18
196.49.0.0/24
197.148.192.0/19
197.159.192.0/19
197.242.224.0/20
213.241.134.8/29
213.255.205.152/29
41.189.32.0/19
41.191.68.0/22
41.202.64.0/18
41.202.128.0/19
41.206.64.0/19
41.207.0.0/19
41.207.192.0/19
41.242.32.0/21
41.66.0.0/18
57.83.128.0/20
62.12.34.80/29
77.70.156.104/29
78.138.14.112/29
78.138.17.216/29
78.138.17.72/29
78.138.17.88/29
78.138.19.128/28
78.138.23.200/29
78.138.27.192/29
78.138.33.200/29
78.138.50.64/29
78.138.53.112/29
78.138.53.64/29
78.138.5.88/29
80.88.155.240/29
82.206.187.0/24
83.229.107.112/29
83.229.107.224/29
83.229.108.112/28
83.229.108.208/29
83.229.108.32/28
83.229.108.56/29
83.229.114.0/29
83.229.116.200/29
83.229.122.208/29
83.229.14.64/29
83.229.16.56/29
83.229.37.120/29
83.229.39.112/29
83.229.39.48/29
83.229.39.80/29
83.229.78.144/28
83.229.89.232/29
83.229.90.80/29
83.229.92.208/29
85.118.36.136/29
89.234.150.0/24
