109.105.224.0/19
109.110.224.0/19
109.169.35.64/27
109.202.118.64/28
109.202.118.96/28
128.0.107.0/24
128.0.108.0/22
128.0.200.0/21
128.0.208.0/20
128.0.224.0/19
156.67.208.0/20
159.122.210.32/27
159.122.225.144/28
159.253.129.0/26
159.253.129.128/26
159.253.133.96/29
159.253.153.168/29
159.255.40.0/21
159.8.13.104/29
159.8.149.160/28
159.8.202.200/29
159.8.23.136/29
159.8.29.248/29
159.8.49.64/27
161.202.154.136/29
164.215.0.0/19
169.45.5.144/28
169.50.88.224/27
169.54.183.128/27
169.54.186.160/27
169.55.39.160/27
176.126.206.0/23
176.227.224.0/20
176.53.37.66/31
176.53.37.68/30
176.53.37.72/29
176.53.37.80/28
176.53.37.96/28
176.53.37.112/29
176.53.37.120/30
176.53.37.124/31
176.53.37.126/32
176.56.168.0/22
176.67.86.56/30
176.97.156.0/23
178.237.39.104/29
178.237.39.128/28
185.105.172.0/22
185.106.100.0/22
185.111.232.0/23
185.111.234.0/25
185.111.234.128/26
185.111.234.192/27
185.111.234.224/28
185.111.234.240/29
185.111.234.248/30
185.111.234.252/31
185.111.234.254/32
185.114.20.0/26
185.114.20.64/27
185.114.20.96/30
185.114.20.100/31
185.114.20.104/32
185.114.20.110/31
185.114.20.112/28
185.114.20.128/25
185.114.21.0/26
185.114.21.64/31
185.114.21.66/32
185.11.42.0/23
185.114.21.156/30
185.114.21.160/27
185.114.21.192/26
185.114.22.0/29
185.114.22.114/32
185.114.22.124/32
185.114.22.131/32
185.114.22.132/32
185.114.22.139/32
185.114.22.142/31
185.114.22.144/32
185.114.22.151/32
185.114.22.152/32
185.114.22.155/32
185.114.22.157/32
185.114.22.158/32
185.114.22.160/32
185.114.22.171/32
185.114.22.173/32
185.114.22.175/32
185.114.22.188/32
185.114.22.208/31
185.114.22.211/32
185.114.22.212/31
185.114.22.217/32
185.114.22.230/31
185.114.22.232/31
185.114.22.234/32
185.114.22.236/32
185.114.22.238/32
185.114.22.247/32
185.114.22.252/32
185.114.22.255/32
185.114.23.0/27
185.114.23.32/32
185.114.22.27/32
185.114.22.28/31
185.114.22.32/31
185.114.22.42/32
185.114.22.52/32
185.114.22.55/32
185.114.22.56/32
185.114.22.58/31
185.114.22.60/32
185.114.22.65/32
185.114.22.74/31
185.114.22.77/32
185.114.22.79/32
185.114.22.82/31
185.114.22.85/32
185.114.22.88/31
185.114.22.9/32
185.114.22.10/32
185.114.22.93/32
185.114.22.97/32
185.114.23.102/31
185.114.23.106/31
185.114.23.108/31
185.114.23.111/32
185.114.23.112/31
185.114.23.114/32
185.114.23.116/30
185.114.23.120/32
185.114.23.122/31
185.114.23.124/30
185.114.23.128/29
185.114.23.136/31
185.114.23.138/32
185.114.23.140/30
185.114.23.144/29
185.114.23.159/32
185.114.23.160/32
185.114.23.162/31
185.114.23.164/30
185.114.23.168/31
185.114.23.171/32
185.114.23.173/32
185.114.23.175/32
185.114.23.176/31
185.114.23.181/32
185.114.23.183/32
185.114.23.184/29
185.114.23.192/31
185.114.23.195/32
185.114.23.196/30
185.114.23.200/29
185.114.23.209/32
185.114.23.210/31
185.114.23.212/30
185.114.23.218/31
185.114.23.222/32
185.114.23.224/32
185.114.23.226/31
185.114.23.229/32
185.114.23.230/31
185.114.23.233/32
185.114.23.234/32
185.114.23.236/31
185.114.23.238/32
185.114.23.243/32
185.114.23.246/32
185.114.23.248/32
185.114.23.251/32
185.114.23.252/32
185.114.23.254/31
185.114.23.34/31
185.114.23.36/30
185.114.23.40/32
185.114.23.42/31
185.114.23.44/31
185.114.23.47/32
185.114.23.48/31
185.114.23.50/32
185.114.23.55/32
185.114.23.59/32
185.114.23.60/32
185.114.23.67/32
185.114.23.68/31
185.114.23.72/30
185.114.23.76/32
185.114.23.78/32
185.114.23.80/28
185.114.23.98/31
185.114.23.100/32
185.117.132.0/22
185.120.184.0/22
185.121.20.0/22
185.12.215.0/24
185.134.116.0/22
185.135.96.0/22
185.143.12.1/32
185.143.12.2/31
185.143.12.4/30
185.143.12.8/29
185.143.12.16/29
185.143.12.24/30
185.143.12.28/31
185.143.12.30/32
185.143.14.193/32
185.143.14.194/31
185.143.14.196/30
185.143.14.200/29
185.143.14.208/29
185.143.14.216/30
185.143.14.220/31
185.143.14.222/32
185.143.15.193/32
185.143.15.194/31
185.143.15.196/30
185.143.15.200/29
185.143.15.208/29
185.143.15.216/30
185.143.15.220/31
185.143.15.222/32
185.143.4.193/32
185.143.4.194/31
185.143.4.196/30
185.143.4.200/29
185.143.4.208/29
185.143.4.216/30
185.143.4.220/31
185.143.4.222/32
185.143.5.193/32
185.143.5.194/31
185.143.5.196/30
185.143.5.200/29
185.143.5.208/29
185.143.5.216/30
185.143.5.220/31
185.143.5.222/32
185.143.6.193/32
185.143.6.194/31
185.143.6.196/30
185.143.6.200/29
185.143.6.208/29
185.143.6.216/30
185.143.6.220/31
185.143.6.222/32
185.145.232.0/22
185.16.148.0/22
185.18.184.0/22
185.20.212.0/22
185.20.37.0/24
185.20.38.0/23
185.28.86.0/23
185.29.121.0/24
185.2.96.0/22
185.33.232.0/22
185.37.184.0/22
185.41.208.0/22
185.42.32.0/22
185.50.132.0/22
185.51.24.0/22
185.52.88.0/22
185.54.160.0/23
185.60.237.0/24
185.60.238.0/23
185.61.240.0/22
185.66.160.0/22
185.68.128.0/22
185.71.216.0/22
185.7.156.0/22
185.78.128.0/22
185.90.44.0/22
185.92.72.128/28
185.92.73.96/27
185.98.107.0/24
188.138.105.11/32
188.138.105.196/32
188.138.105.25/32
188.138.110.78/31
188.138.110.80/32
188.138.119.231/32
188.138.125.151/32
188.138.125.250/32
188.138.125.94/32
188.138.127.194/32
188.138.17.151/32
188.138.17.64/32
188.138.25.129/32
188.138.25.194/32
188.138.25.214/32
188.138.25.218/31
188.138.25.220/32
188.138.25.232/32
188.138.60.160/27
188.138.70.212/31
188.138.71.232/32
188.138.71.71/32
188.138.71.76/32
188.138.71.80/32
188.138.7.64/27
188.138.83.52/32
188.138.83.61/32
188.138.83.78/32
188.164.249.64/26
188.164.252.0/24
188.231.80.0/21
188.231.94.0/24
188.42.237.0/24
188.64.136.0/21
188.72.119.0/24
193.104.76.0/24
193.105.224.0/24
193.164.232.160/27
193.188.134.168/29
193.188.134.176/28
193.188.134.192/29
193.192.12.128/25
193.194.105.0/24
193.201.128.0/22
193.201.147.160/27
193.201.148.0/26
193.201.149.192/26
193.201.150.64/26
193.201.150.128/26
193.201.151.0/26
193.201.157.0/25
193.218.205.64/26
193.218.205.128/26
193.218.205.192/27
193.218.207.80/28
193.218.207.96/27
193.22.30.0/24
193.234.198.0/24
193.242.214.0/24
193.43.0.64/27
193.58.0.0/27
193.58.0.32/28
193.58.0.64/26
193.58.0.128/25
193.92.10.0/23
194.0.146.0/24
194.103.20.0/24
194.106.198.0/24
194.117.110.120/29
194.117.119.43/32
194.117.52.0/25
194.12.48.0/20
194.132.32.0/24
194.153.156.64/26
194.153.156.128/25
194.153.157.192/26
194.154.128.0/21
194.154.136.0/22
194.154.140.0/23
194.154.143.0/24
194.154.144.0/20
194.196.198.0/25
194.30.128.0/19
194.42.0.0/19
194.42.32.0/21
194.42.128.0/20
194.42.144.0/22
194.42.148.24/29
194.42.148.32/27
194.42.148.64/26
194.42.148.128/25
194.42.149.0/24
194.42.150.0/23
194.42.152.0/21
194.42.148.4/30
194.42.55.32/27
194.42.55.64/26
194.42.55.128/27
194.9.20.0/23
195.10.3.224/28
195.10.63.16/29
195.112.165.72/30
195.112.166.64/30
195.112.168.80/30
195.112.181.172/32
195.112.182.18/32
195.14.128.0/19
195.170.176.0/24
195.189.156.0/23
195.206.250.0/23
195.212.147.192/26
195.219.28.40/29
195.242.170.0/24
195.60.81.192/26
195.60.82.0/26
195.60.83.160/27
195.60.83.64/27
195.60.84.0/25
195.60.87.128/25
195.60.93.0/26
195.60.93.192/26
195.60.95.0/25
195.88.176.0/23
195.95.138.0/24
212.24.145.224/28
212.24.156.152/30
212.31.122.0/23
212.31.124.0/22
212.31.96.0/20
212.31.112.0/21
212.31.120.0/24
212.48.120.96/27
212.48.90.211/32
212.48.90.212/31
212.48.90.214/32
212.50.96.0/19
212.53.148.0/24
212.53.179.0/24
212.63.162.168/30
212.63.163.176/30
212.63.173.204/30
212.63.176.150/32
212.73.143.64/27
213.133.80.0/20
213.140.192.0/22
213.140.196.0/24
213.140.198.0/23
213.140.200.0/21
213.140.208.0/20
213.149.160.0/19
213.169.128.0/20
213.169.148.0/23
213.169.150.0/24
213.169.154.0/23
213.169.156.0/22
213.200.95.128/28
213.207.128.0/18
213.7.0.0/16
217.114.211.0/28
217.114.215.96/28
217.146.36.0/24
217.151.224.128/27
217.16.224.0/20
217.168.171.96/28
217.17.157.140/30
217.17.157.144/28
217.17.157.160/27
217.17.157.192/26
217.17.159.0/24
217.172.190.56/31
217.173.158.0/26
217.173.158.224/27
217.173.159.0/26
217.173.159.96/27
217.173.159.128/25
217.175.208.0/20
217.23.110.160/27
217.27.32.0/21
217.27.44.0/23
217.27.48.0/22
217.27.52.0/23
217.27.54.0/24
217.27.55.144/28
217.27.55.160/27
217.27.55.192/26
217.27.56.0/21
217.27.55.36/30
217.27.55.48/29
217.27.55.56/30
217.27.55.72/29
217.27.55.80/28
217.27.55.96/27
217.77.242.37/32
31.13.218.192/28
31.153.0.0/17
31.153.128.0/19
31.153.160.0/20
31.153.209.0/24
31.153.210.0/23
31.153.212.0/22
31.153.216.0/21
31.153.224.0/19
31.209.100.1/32
31.209.100.2/31
31.209.100.4/30
31.209.100.8/29
31.209.100.16/28
31.209.100.32/27
31.209.100.64/26
31.209.100.128/25
31.209.101.0/24
31.209.102.0/23
31.209.104.1/32
31.209.104.2/31
31.209.104.4/30
31.209.104.8/29
31.209.104.16/28
31.209.104.32/27
31.209.104.64/26
31.209.104.128/25
31.209.105.0/24
31.209.106.0/23
31.209.108.0/22
31.209.96.1/32
31.209.96.2/31
31.209.96.4/30
31.209.96.8/29
31.209.96.16/28
31.209.96.32/27
31.209.96.64/26
31.209.96.128/25
31.209.97.0/24
31.209.98.0/23
31.216.64.0/18
31.22.115.96/28
31.22.88.0/23
31.22.92.0/22
37.149.0.0/16
37.218.192.0/20
37.58.121.88/29
37.58.66.80/29
37.58.92.96/29
37.58.93.160/27
37.9.177.0/24
37.9.179.0/24
37.9.181.0/24
37.9.182.0/23
46.16.136.0/21
46.16.190.72/29
46.166.168.24/29
46.166.170.128/29
46.199.0.0/16
46.21.171.0/26
46.21.48.0/20
46.251.96.0/19
46.252.108.0/24
46.255.121.0/24
46.255.122.0/24
46.255.126.0/23
46.28.176.0/21
46.31.66.0/24
5.101.221.0/25
5.10.70.136/29
5.10.77.8/29
5.153.18.160/29
5.153.18.48/29
5.153.21.248/29
5.153.24.168/29
5.153.25.172/30
5.153.27.176/29
5.153.28.96/28
5.153.39.8/29
5.153.41.160/27
5.153.58.0/27
5.153.63.32/27
5.153.63.64/27
5.153.8.72/29
5.153.9.64/27
5.62.91.96/29
62.12.64.0/20
62.12.81.0/24
62.12.82.0/23
62.12.84.0/22
62.12.88.0/21
62.152.0.0/19
62.153.117.240/28
62.228.0.0/16
62.75.167.159/32
62.75.167.162/32
62.75.167.192/32
62.75.179.250/32
62.75.194.50/32
62.75.195.114/32
62.75.195.120/30
62.75.195.13/32
62.75.195.195/32
62.75.197.205/32
62.75.197.206/32
62.75.197.209/32
62.75.197.210/32
62.75.197.227/32
62.75.197.237/32
62.75.203.74/32
62.75.207.10/32
62.75.207.133/32
62.75.207.26/32
62.75.207.32/31
62.75.207.3/32
62.75.207.8/32
62.75.223.50/32
62.75.223.54/31
62.75.223.73/32
62.75.237.243/32
62.75.238.43/32
77.74.56.0/24
77.79.194.0/26
77.79.220.24/29
77.91.227.168/29
77.92.0.0/23
77.92.2.0/27
77.92.2.48/28
77.92.2.64/28
77.92.2.80/32
77.92.2.96/27
77.92.2.128/25
77.92.3.0/24
77.92.4.0/22
77.92.8.0/21
77.92.16.0/32
77.95.16.0/21
78.135.4.0/22
78.140.132.0/27
78.140.145.192/26
78.140.148.0/24
78.140.149.128/26
78.140.156.128/26
78.140.170.128/27
78.140.176.0/25
78.140.189.0/25
78.140.191.0/25
78.158.128.0/20
78.158.144.0/21
78.158.152.0/23
78.158.154.0/24
78.158.155.64/28
78.158.155.88/29
78.158.155.96/27
78.158.155.128/25
78.158.156.0/22
79.98.129.0/24
79.99.192.120/29
79.99.236.40/29
80.190.129.48/28
80.231.22.0/24
80.244.16.0/20
80.85.16.0/21
80.85.24.0/23
80.85.26.0/24
80.85.27.136/32
80.85.27.143/32
80.85.27.168/29
80.85.27.192/29
80.85.27.208/29
80.85.27.232/29
80.85.27.24/29
80.85.27.32/29
80.85.28.105/32
80.85.28.106/31
80.85.28.108/30
80.85.28.184/29
80.85.28.192/28
80.85.28.208/29
80.85.28.224/29
80.85.28.240/28
80.85.31.0/24
81.21.32.0/20
81.4.128.0/19
81.4.160.0/20
81.4.176.0/21
81.4.185.0/24
81.4.186.0/23
81.4.188.0/22
81.91.121.0/24
81.95.150.0/27
81.95.153.156/30
81.95.158.216/29
82.102.32.0/19
82.102.64.0/18
82.114.32.0/19
82.116.192.0/19
83.168.0.0/18
84.20.255.0/26
85.159.64.0/29
85.159.66.0/23
85.25.102.140/32
85.25.102.6/32
85.25.104.96/27
85.25.105.192/26
85.25.110.134/32
85.25.110.189/32
85.25.116.70/32
85.25.116.79/32
85.25.116.9/32
85.25.154.241/32
85.25.159.74/32
85.25.161.192/27
85.25.161.96/27
85.25.162.224/27
85.25.171.128/27
85.25.186.192/27
85.25.254.59/32
85.25.79.125/32
86.106.142.0/24
87.228.128.0/17
87.236.32.0/21
88.202.104.48/28
88.202.108.48/28
88.205.102.148/30
88.85.74.0/25
88.85.94.64/26
89.19.29.0/24
89.19.30.0/24
89.202.117.128/28
89.202.32.0/29
89.202.43.224/27
89.202.45.64/27
89.202.47.128/27
91.106.208.0/24
91.106.209.0/25
91.106.209.192/26
91.106.212.0/22
91.184.192.0/19
91.197.44.0/23
91.199.215.0/24
91.212.145.0/24
91.216.210.0/24
91.217.246.0/24
91.220.41.0/24
91.223.164.0/24
91.223.208.0/24
91.239.195.0/24
91.240.203.0/24
91.240.212.0/23
91.245.222.0/24
92.223.90.0/24
92.61.245.64/26
93.109.0.0/16
93.170.10.0/24
93.171.210.0/23
93.176.88.128/27
93.89.224.0/20
94.125.144.0/21
94.229.10.0/24
94.229.11.224/27
94.229.12.0/25
94.229.11.96/27
94.229.12.192/26
94.229.13.32/27
94.229.13.64/26
94.229.13.128/25
94.229.14.128/26
94.229.14.192/28
94.229.14.80/28
94.229.15.0/24
94.46.196.0/22
94.46.200.0/22
94.46.208.0/21
94.46.224.0/20
94.73.144.0/21
94.73.169.0/24
94.73.170.0/23
95.131.49.192/29
95.142.103.0/26
95.142.17.48/28
95.142.17.64/28
