188.138.6.92/32
188.138.82.219/32
188.138.82.221/32
193.251.143.0/24
193.251.167.0/26
193.251.167.64/27
193.251.167.96/28
193.251.224.0/25
193.251.224.128/26
193.251.224.192/28
193.251.224.208/29
196.201.192.0/20
196.223.38.0/24
196.49.10.0/24
197.241.0.0/17
213.144.175.0/25
41.189.224.0/19
46.36.203.21/32
46.36.203.22/31
46.36.203.24/31
57.82.240.0/20
85.25.104.211/32
85.25.203.98/32
