131.221.4.0/22
138.255.248.0/22
138.36.24.0/22
138.97.248.0/22
138.99.236.0/22
143.0.24.0/22
143.137.80.0/22
143.208.164.0/22
148.0.0.0/16
148.101.0.0/16
148.103.0.0/16
148.255.0.0/16
152.0.0.0/16
152.166.0.0/15
168.228.232.0/22
168.232.108.0/22
169.53.22.128/28
169.53.38.144/28
169.53.9.16/28
169.54.57.96/28
169.55.200.128/28
170.254.64.0/22
179.43.192.0/18
179.49.80.0/20
179.51.64.0/20
179.52.0.0/15
181.224.168.0/22
181.224.204.0/22
181.36.0.0/15
185.55.52.200/29
186.120.0.0/16
186.148.88.0/21
186.149.0.0/16
186.150.0.0/16
186.1.64.0/18
186.33.64.0/18
186.6.0.0/15
188.138.105.188/31
188.138.110.105/32
188.138.125.130/32
188.138.25.87/32
188.138.68.123/32
188.138.68.126/32
188.138.68.128/31
188.138.68.199/32
188.138.68.254/32
188.138.69.50/31
188.138.69.52/31
188.138.71.237/32
188.138.71.238/31
188.138.71.240/29
188.138.71.248/30
188.138.71.252/32
190.0.64.0/19
190.103.180.0/22
190.106.112.0/21
190.110.0.0/18
190.113.240.0/22
190.113.64.0/20
190.122.96.0/19
190.124.64.0/19
190.166.0.0/15
190.211.176.0/20
190.52.224.0/19
190.6.128.0/19
190.80.128.0/17
190.8.32.0/20
190.94.0.0/17
191.102.240.0/22
191.97.104.0/22
191.97.88.0/21
191.98.208.0/21
193.252.229.0/25
193.252.229.128/27
194.117.112.12/30
195.112.186.0/30
195.112.187.84/30
195.112.189.52/30
195.112.191.228/30
196.3.106.0/24
196.3.74.0/23
196.3.76.0/22
196.3.80.0/21
196.3.88.0/23
200.10.142.0/24
200.10.162.0/24
200.1.154.0/23
200.14.36.0/24
200.14.79.0/24
200.16.90.0/23
200.23.65.0/24
200.26.168.0/21
200.42.192.0/18
200.58.240.0/21
200.88.0.0/16
200.89.88.0/21
201.131.106.0/23
201.131.50.0/24
201.221.126.0/24
201.229.128.0/17
204.126.128.0/23
205.233.76.0/22
212.63.178.232/30
212.63.186.153/32
212.63.186.155/32
212.63.186.167/32
217.172.170.206/32
217.172.170.246/32
217.172.170.90/32
57.91.64.0/20
62.75.167.203/32
62.75.207.86/31
64.32.64.0/18
66.98.0.0/18
66.98.64.0/19
80.86.88.75/32
80.86.88.76/32
85.25.104.229/32
85.25.110.235/32
85.25.157.147/32
85.25.41.100/31
85.25.97.254/32
