104.245.48.0/22
104.245.92.0/22
162.245.152.0/22
196.3.73.0/24
199.58.120.0/21
199.83.192.0/21
199.85.236.0/22
206.126.244.0/24
217.138.34.248/29
217.138.35.0/24
217.173.157.0/26
57.91.80.0/20
74.117.84.0/22
74.122.88.0/21
83.229.113.176/30
83.229.113.180/31
