154.66.84.0/22
193.219.241.128/27
193.220.38.224/29
197.149.192.0/18
213.255.211.128/28
213.255.218.248/29
213.255.245.0/29
213.255.245.12/30
213.255.245.16/29
213.255.245.28/30
213.255.245.32/29
213.255.245.52/30
217.194.142.108/30
217.194.142.120/30
217.194.142.124/32
217.194.142.128/29
217.194.142.144/30
217.194.142.188/30
217.194.142.200/29
217.194.142.224/29
217.194.142.232/30
217.194.142.68/30
217.194.142.96/30
217.194.143.84/30
217.194.143.88/30
217.194.149.104/29
217.194.149.48/29
217.194.153.88/29
217.20.250.0/24
41.191.220.0/22
41.223.48.0/22
41.242.88.0/22
41.77.184.0/21
41.79.200.0/22
41.79.236.0/22
57.83.96.0/20
77.70.156.128/29
77.70.157.8/29
77.70.157.16/30
78.138.43.72/29
78.138.44.184/29
78.138.45.184/29
78.138.50.40/29
78.138.51.88/29
80.231.203.0/24
80.78.30.128/29
80.78.31.136/29
80.88.139.80/28
81.31.69.1/32
81.31.69.2/31
81.31.69.4/30
81.31.69.8/29
81.31.69.16/28
82.206.128.176/29
83.229.106.112/29
83.229.109.112/29
83.229.13.144/29
83.229.13.153/32
83.229.13.154/31
83.229.13.156/30
83.229.22.200/29
83.229.23.136/30
83.229.23.140/31
83.229.23.168/29
83.229.24.168/29
83.229.28.104/29
83.229.28.80/28
83.229.34.232/29
83.229.34.72/29
83.229.39.184/29
83.229.39.56/29
83.229.42.120/29
83.229.56.20/30
83.229.56.32/30
83.229.66.168/29
83.229.67.32/29
83.229.74.64/29
83.229.74.80/29
83.229.79.104/29
83.229.83.224/29
83.229.90.224/29
83.229.90.48/29
83.229.92.128/29
83.229.95.24/29
83.229.95.48/29
