104.250.0.0/19
107.191.208.0/20
185.123.28.0/22
185.21.215.0/24
193.251.160.0/25
193.251.160.128/29
193.251.160.136/30
193.251.160.144/29
193.251.160.160/27
193.251.160.192/26
193.251.162.0/23
193.251.164.0/24
193.251.165.0/26
199.91.160.0/22
208.72.228.0/22
208.79.96.0/22
208.94.168.0/22
213.16.0.0/24
213.16.11.0/24
213.16.16.0/24
213.16.21.0/24
213.16.22.0/24
213.16.25.0/25
213.16.25.128/27
213.16.25.160/29
213.16.25.176/28
213.16.25.192/26
213.16.30.0/24
213.16.4.0/24
213.16.8.0/23
213.188.160.0/24
213.188.164.0/24
213.188.166.0/24
213.188.168.0/24
213.188.170.0/23
213.188.172.0/22
213.188.176.0/24
213.188.178.0/23
213.188.180.0/23
213.188.182.0/24
213.188.185.0/24
213.188.186.0/24
213.188.188.0/24
46.238.128.0/18
5.187.121.0/24
5.187.125.0/24
5.187.126.0/24
5.187.96.0/21
81.248.11.0/24
81.248.136.0/21
81.248.146.0/23
81.248.149.0/24
81.248.150.0/23
81.248.152.0/24
81.248.157.0/24
81.248.158.0/23
81.248.16.0/21
81.248.24.0/22
81.248.28.0/23
81.248.30.0/24
81.248.168.0/21
81.248.178.0/23
81.248.180.0/22
81.248.186.0/24
81.248.4.0/24
81.52.208.0/21
90.36.105.0/24
90.36.106.0/23
90.36.108.0/22
90.36.112.0/20
90.36.132.0/22
90.36.136.0/23
90.36.143.0/24
90.36.144.0/21
90.36.15.0/24
90.36.16.0/21
90.36.162.0/23
90.36.164.0/22
90.36.168.0/21
90.36.181.0/24
90.36.182.0/23
90.36.184.0/21
90.36.192.0/23
90.36.203.0/24
90.36.204.0/22
90.36.208.0/20
90.36.224.0/24
90.36.233.0/24
90.36.234.0/23
90.36.236.0/22
90.36.240.0/20
90.36.34.0/23
90.36.36.0/22
90.36.40.0/21
90.36.4.0/22
90.36.8.0/23
90.36.53.0/24
90.36.54.0/23
90.36.56.0/21
90.36.64.0/23
90.36.75.0/24
90.36.76.0/22
90.36.80.0/20
90.36.96.0/24
93.121.128.0/21
93.121.136.0/24
93.121.139.0/24
93.121.140.0/24
93.121.143.0/24
93.121.144.0/20
93.121.160.0/22
93.121.165.0/24
93.121.166.0/23
93.121.168.0/23
93.121.170.0/24
93.121.172.0/23
93.121.174.0/24
93.121.176.0/22
93.121.180.0/23
93.121.182.0/24
93.121.184.0/24
93.121.188.0/22
93.121.192.0/21
93.121.201.0/24
93.121.202.0/23
93.121.204.0/23
93.121.207.0/24
93.121.208.0/20
93.121.224.0/20
93.121.240.0/24
93.121.242.0/24
93.121.244.0/24
93.121.248.0/22
93.121.252.0/23
93.121.254.0/24
