139.141.0.0/16
149.147.0.0/16
151.248.96.0/20
159.122.143.40/29
159.122.153.168/29
159.122.80.0/28
159.253.128.20/30
159.253.132.168/29
159.253.134.224/29
159.253.144.92/30
159.253.147.184/29
159.253.151.128/29
159.253.153.32/28
159.8.167.32/27
159.8.20.96/27
159.8.28.216/29
159.8.9.176/29
161.252.0.0/16
168.187.0.0/16
169.45.238.196/30
169.45.238.200/29
169.50.3.208/28
169.53.244.144/28
169.54.49.96/27
169.57.143.128/28
171.25.224.0/24
176.110.119.0/24
178.161.0.0/17
178.236.226.216/30
178.249.176.0/21
178.53.0.0/16
178.61.0.0/16
185.100.96.0/22
185.12.249.152/29
185.132.204.0/22
185.133.124.0/22
185.139.237.128/25
185.142.104.0/22
185.146.240.0/22
185.147.28.0/22
185.150.216.0/22
185.154.188.0/23
185.154.190.0/24
185.16.4.0/22
185.19.76.0/22
185.33.124.0/22
185.36.176.0/22
185.41.216.0/22
185.46.144.0/22
185.48.188.0/22
185.64.200.0/22
185.9.196.0/22
185.95.4.0/22
185.96.228.0/22
188.231.0.0/19
188.231.32.0/22
188.231.36.0/24
188.231.120.0/22
188.231.124.0/24
188.231.37.32/27
188.231.37.64/26
188.231.37.128/25
188.231.38.0/28
188.231.38.160/27
188.231.38.192/26
188.231.39.0/25
188.231.39.128/27
188.231.38.32/27
188.231.38.64/29
188.231.40.0/21
188.231.48.0/20
188.231.64.0/20
188.231.88.0/22
188.231.92.0/28
188.231.92.32/27
188.231.92.64/26
188.231.92.128/25
188.231.93.24/29
188.231.93.64/29
188.231.95.16/28
188.231.95.32/27
188.231.95.64/26
188.236.0.0/16
188.70.0.0/15
193.108.142.0/23
193.108.30.0/24
193.109.215.0/24
193.169.130.0/23
193.188.142.0/23
193.188.144.0/21
193.188.152.0/23
193.188.160.0/19
193.188.48.0/20
193.200.40.0/23
193.22.172.0/24
193.33.224.0/23
193.42.223.0/24
194.126.32.0/22
194.126.36.0/25
194.126.36.128/26
194.126.37.0/24
194.126.38.0/23
194.126.40.0/24
194.126.42.0/23
194.126.44.0/22
194.126.48.0/20
194.176.108.0/24
194.31.57.0/24
194.54.192.0/18
195.137.174.0/24
195.137.190.0/24
195.14.110.0/23
195.219.52.0/23
195.226.224.0/19
195.229.24.0/23
195.229.26.0/24
195.229.7.0/24
195.229.8.0/23
195.254.170.0/23
195.39.128.0/18
195.78.74.0/23
195.80.227.0/24
195.88.222.0/23
196.1.69.0/24
196.1.70.0/24
212.43.0.0/19
213.132.224.0/19
213.189.64.0/19
213.34.192.0/19
217.69.176.0/20
31.13.154.208/29
31.13.156.56/29
31.13.159.0/29
31.203.0.0/16
31.214.0.0/17
31.217.224.0/21
37.231.0.0/16
37.34.128.0/17
37.36.0.0/14
37.58.100.132/30
37.58.111.240/29
37.58.122.224/29
37.58.126.0/29
37.58.64.0/29
37.58.64.200/29
37.58.70.200/29
37.58.70.32/29
37.58.72.232/29
37.58.73.168/29
46.16.187.240/29
46.16.188.80/28
46.186.128.0/17
5.10.68.80/30
5.10.73.128/29
5.10.73.152/29
5.10.75.152/29
5.10.77.240/29
5.10.81.112/28
5.10.86.240/29
5.10.89.144/28
5.1.40.0/24
5.153.26.0/29
5.153.30.128/29
5.153.4.168/30
5.153.50.64/29
5.153.7.176/29
5.153.7.204/30
5.175.184.128/25
57.88.144.0/20
62.150.0.0/16
62.215.0.0/16
77.73.198.0/23
78.154.192.0/18
78.159.160.0/19
78.89.0.0/16
79.99.193.40/29
79.99.195.120/29
80.184.0.0/16
81.95.159.136/29
82.116.130.0/23
82.116.136.144/28
82.116.136.160/27
82.116.137.160/27
82.116.137.192/26
82.116.138.0/28
82.116.138.32/27
82.116.138.64/26
82.116.138.128/25
82.116.139.0/26
82.116.139.128/25
82.116.140.0/22
82.116.148.0/22
82.116.152.0/22
82.116.156.0/23
82.116.158.0/24
82.205.178.0/24
83.68.160.0/19
83.96.0.0/17
84.246.72.0/21
85.203.25.0/24
85.203.33.0/24
85.239.0.0/21
85.239.8.0/23
85.239.12.0/22
85.239.16.0/20
87.236.120.0/21
88.202.105.192/28
88.202.109.192/28
89.107.8.0/21
89.203.0.0/17
89.251.80.0/21
89.251.88.0/26
89.251.88.96/27
89.251.88.128/25
89.251.89.0/24
89.251.90.0/23
89.251.92.0/22
91.102.144.0/21
91.102.232.0/21
91.102.32.0/21
91.140.128.0/17
91.194.102.0/23
91.194.130.0/23
91.198.134.0/24
91.208.203.0/24
91.209.172.0/24
91.212.32.0/24
91.212.8.0/24
91.214.152.0/22
91.216.188.0/24
91.221.128.0/23
91.221.220.0/23
91.230.213.0/24
91.230.225.0/24
91.246.14.0/24
93.191.64.0/21
94.128.0.0/15
94.187.128.0/17
94.29.128.0/17
95.141.240.0/20
95.175.64.0/19
95.66.0.0/17
