101.2.176.0/20
103.11.32.0/22
103.1.176.0/22
103.21.164.0/22
103.2.148.0/22
103.2.152.0/22
103.227.244.0/22
103.241.27.0/24
103.247.48.0/22
103.29.60.0/22
111.223.128.0/18
112.134.0.0/15
113.59.192.0/19
116.12.64.0/18
119.235.0.0/20
122.255.0.0/18
123.231.0.0/17
124.43.0.0/16
124.6.240.0/20
125.214.160.0/19
161.202.180.96/28
161.202.25.196/30
169.53.55.208/28
175.157.0.0/16
182.161.0.0/19
192.248.0.0/17
202.124.160.0/19
202.129.232.0/22
202.21.32.0/21
202.69.192.0/20
203.115.0.0/18
203.143.0.0/18
203.153.220.0/22
203.189.184.0/21
203.189.64.0/20
203.34.116.0/24
203.81.96.0/20
203.94.64.0/18
218.100.57.0/24
218.100.61.0/24
220.247.192.0/18
222.165.128.0/18
43.224.124.0/22
43.228.108.0/22
43.250.240.0/22
43.252.12.0/22
45.121.88.0/22
5.199.171.16/28
5.199.171.32/28
57.93.16.0/20
61.245.160.0/20
62.75.223.11/32
62.75.255.110/32
81.95.159.240/29
