154.119.128.0/20
164.160.8.0/22
168.253.0.0/19
193.219.213.128/29
196.223.44.0/24
196.49.16.0/24
197.215.216.0/22
197.231.152.0/21
197.231.220.0/22
212.165.161.0/24
212.165.162.0/23
213.185.100.32/27
213.255.201.32/29
213.255.205.128/29
213.255.208.104/29
213.255.208.128/29
213.255.255.32/29
41.191.104.0/22
41.57.80.0/20
41.86.0.0/19
57.83.176.0/20
62.56.145.32/27
62.56.146.0/26
62.90.252.0/24
77.70.156.120/29
77.70.157.196/30
77.70.158.48/28
78.138.0.240/29
78.138.0.64/29
78.138.12.96/29
78.138.19.0/29
78.138.23.32/29
78.138.27.88/29
78.138.39.16/29
78.138.41.104/29
78.138.43.16/29
78.138.44.200/29
78.138.49.200/29
78.138.50.16/30
78.138.50.20/31
78.138.5.112/29
78.138.52.144/29
78.138.52.160/29
78.138.52.16/29
78.138.6.120/29
78.138.6.184/29
78.138.6.232/29
78.138.7.160/29
78.138.7.240/29
78.41.226.192/28
78.41.226.96/27
81.199.180.0/24
81.199.32.0/24
82.206.130.152/29
83.229.0.72/29
83.229.101.16/29
83.229.107.40/29
83.229.108.128/29
83.229.109.224/29
83.229.109.88/29
83.229.110.224/29
83.229.113.152/29
83.229.117.240/28
83.229.124.116/30
83.229.126.200/29
83.229.15.224/29
83.229.2.188/30
83.229.22.192/29
83.229.31.232/29
83.229.31.72/29
83.229.32.32/29
83.229.34.200/29
83.229.36.128/29
83.229.64.208/29
83.229.64.32/29
83.229.64.96/29
83.229.66.232/29
83.229.67.0/29
83.229.67.160/29
83.229.69.192/29
83.229.79.216/29
83.229.80.152/29
83.229.83.160/29
83.229.89.40/29
83.229.89.48/29
83.229.92.144/29
83.229.92.224/29
83.229.92.48/29
83.229.92.72/29
83.229.95.32/29
83.229.97.244/30
