194.165.16.0/23
194.9.12.0/23
195.112.166.76/30
195.20.192.0/23
195.25.174.160/29
195.78.0.0/19
205.147.149.30/32
212.53.182.240/28
213.137.128.0/24
213.137.129.0/28
213.137.129.16/29
213.137.129.108/30
213.137.129.112/28
213.137.129.128/25
213.137.130.0/27
213.137.130.128/25
213.137.131.0/24
213.137.132.0/27
213.137.132.32/28
213.137.132.48/30
213.137.130.64/27
213.137.132.57/32
213.137.132.58/31
213.137.132.60/31
213.137.132.62/32
213.137.132.64/26
213.137.132.128/25
213.137.133.160/27
213.137.133.192/26
213.137.135.0/24
213.137.137.0/28
213.137.139.16/28
213.137.139.34/31
213.137.139.36/30
213.137.139.40/29
217.204.159.108/30
57.79.248.0/21
80.94.96.0/20
82.113.0.0/19
82.97.16.128/28
83.169.66.112/28
85.119.2.96/27
85.203.22.208/28
85.237.100.128/29
87.254.224.0/19
88.202.106.48/28
88.202.110.48/28
88.209.64.0/18
91.199.109.0/24
93.187.20.220/31
