109.200.32.0/19
109.202.118.0/26
109.202.118.120/29
109.202.119.124/30
141.8.0.0/17
159.122.239.224/28
159.122.65.181/32
159.122.71.4/32
159.122.71.6/31
159.122.80.64/28
159.122.92.176/28
159.20.24.0/21
159.253.144.32/29
159.8.157.32/28
159.8.182.192/28
159.8.238.16/28
159.8.40.232/29
159.8.95.0/28
169.50.129.64/28
169.54.124.128/29
169.54.124.160/28
169.54.92.16/29
169.55.60.67/32
176.67.86.180/30
178.132.72.0/24
178.170.138.0/24
178.239.53.152/29
178.255.8.0/24
178.32.185.12/30
185.115.12.0/22
185.141.249.0/24
185.141.250.0/23
185.157.36.0/22
185.16.193.0/24
185.27.56.0/22
185.28.72.0/23
185.31.122.104/30
185.31.122.64/28
185.36.236.0/22
185.51.236.0/22
185.5.48.0/22
185.56.136.255/32
185.56.137.0/29
185.56.137.11/32
185.56.137.12/30
185.56.137.16/28
185.56.137.32/27
185.56.137.64/26
185.56.137.128/25
185.56.138.0/23
185.56.252.0/22
185.63.75.0/24
185.63.76.0/22
185.64.56.0/22
185.76.244.0/22
185.86.44.0/23
185.86.47.0/24
185.89.136.0/22
185.89.236.0/22
185.9.100.0/23
185.91.0.0/23
185.91.2.0/25
185.91.2.128/26
185.91.2.224/27
185.91.3.0/24
188.138.125.34/31
188.138.125.53/32
188.138.69.203/32
188.172.0.0/18
188.172.64.0/19
188.65.184.232/29
188.65.184.32/27
188.65.184.64/26
188.65.184.128/26
188.65.184.192/27
188.65.185.128/25
188.65.186.0/23
188.65.189.0/24
188.65.190.0/32
188.65.190.224/27
188.65.191.0/24
188.65.190.32/27
188.65.190.64/32
188.65.190.96/27
188.65.190.128/26
192.121.63.0/24
192.136.7.0/24
193.110.155.0/24
193.142.245.0/24
193.150.126.0/24
193.188.32.0/20
193.31.212.0/23
193.33.228.0/23
193.82.255.0/24
194.10.4.0/27
194.10.5.0/27
194.105.32.0/20
194.106.64.0/19
194.150.55.0/24
194.153.85.0/24
194.158.32.0/19
194.204.96.0/19
195.10.192.0/24
195.10.217.0/24
195.12.225.0/28
195.138.224.0/21
195.158.64.0/18
195.234.51.0/24
195.38.30.0/24
212.56.128.0/19
212.65.96.0/19
213.165.160.0/19
213.167.79.64/26
213.169.151.0/24
213.187.226.0/24
213.217.192.0/18
217.145.0.0/20
217.15.96.0/20
217.168.160.0/21
217.168.168.0/23
217.168.170.0/24
217.168.171.0/26
217.168.171.64/27
217.168.171.112/28
217.168.171.128/25
217.168.172.0/22
217.22.176.0/20
217.30.96.0/20
217.71.176.0/20
37.114.72.0/21
37.58.123.96/29
37.58.65.160/29
37.58.69.32/29
37.58.72.224/29
37.75.32.0/19
46.11.0.0/16
46.16.185.16/29
46.16.189.128/29
46.243.136.0/24
46.54.0.0/17
5.10.90.144/29
5.62.86.32/27
5.62.86.64/26
5.62.86.128/25
5.62.92.48/29
62.173.0.0/19
77.243.64.0/20
77.71.128.0/17
77.95.225.22/32
78.110.16.0/20
78.133.0.0/17
78.140.170.32/27
78.24.214.0/23
80.243.162.160/27
80.243.175.192/26
80.245.208.0/20
80.254.80.0/20
80.71.48.0/20
80.71.96.0/20
80.77.192.0/20
80.85.96.0/20
80.86.90.191/32
80.93.144.0/20
82.98.97.160/30
83.142.248.0/21
83.229.70.160/29
84.255.0.0/18
85.119.120.0/21
85.184.96.0/19
85.203.22.0/28
85.232.192.0/19
88.202.106.112/28
88.202.110.112/28
88.203.0.0/17
88.85.76.0/24
88.86.176.200/29
88.86.176.224/27
89.202.43.128/28
91.103.88.0/21
91.198.207.0/24
91.200.196.0/22
91.220.139.0/24
91.221.10.0/23
91.231.10.0/24
92.251.0.0/17
92.60.8.208/29
92.60.9.112/29
93.158.123.20/30
93.93.83.0/24
94.125.56.0/26
94.125.56.64/28
94.125.56.96/27
94.125.56.128/25
94.125.57.0/28
94.125.57.144/28
94.125.57.168/29
94.125.57.176/28
94.125.57.192/26
94.125.58.0/29
94.125.57.32/27
94.125.57.64/27
94.125.57.96/28
94.125.57.112/29
94.125.58.64/26
94.125.58.128/25
94.125.59.0/24
94.125.61.0/28
94.125.62.0/26
94.125.62.64/27
94.125.62.112/28
94.125.62.128/25
94.125.63.0/24
94.138.224.0/19
94.17.0.0/16
94.46.44.115/32
95.129.34.0/26
95.129.36.0/23
95.131.232.0/21
95.142.98.32/28
