103.197.164.0/22
103.31.84.0/22
103.50.104.0/22
103.67.26.0/24
115.84.128.0/19
123.176.0.0/19
124.195.192.0/19
202.1.192.0/20
202.153.80.0/21
202.21.176.0/20
203.104.24.0/21
203.82.2.0/23
220.158.220.0/22
27.114.128.0/18
43.226.220.0/22
43.231.28.0/22
57.92.192.0/20
