104.218.240.0/22
104.219.28.0/22
104.244.180.0/22
104.255.180.0/22
134.202.0.0/16
136.145.0.0/16
159.180.128.0/18
159.8.222.144/29
162.210.40.0/22
162.212.160.0/21
162.220.96.0/21
162.222.108.0/22
162.244.16.0/22
162.244.168.0/22
162.246.172.0/22
162.248.44.0/22
164.42.0.0/16
169.45.216.32/28
172.85.120.0/22
173.211.128.0/18
173.215.128.0/17
173.228.192.0/18
173.243.80.0/20
184.95.0.0/20
192.107.111.0/24
192.135.110.0/23
192.152.164.0/24
192.155.158.0/23
192.158.62.0/23
192.160.174.0/23
192.160.176.0/24
192.203.0.0/24
192.207.48.0/24
192.231.92.0/22
192.231.96.0/23
192.254.96.0/20
192.30.40.0/22
192.65.176.0/24
192.75.187.0/24
192.92.193.0/24
195.112.188.84/30
196.1.141.0/24
196.12.0.0/21
196.12.8.0/23
196.1.2.0/24
196.12.160.0/19
196.28.48.0/20
196.32.128.0/19
196.3.8.0/22
196.3.12.0/23
196.42.0.0/18
198.204.71.0/24
198.204.72.0/24
198.244.64.0/20
198.245.139.0/24
198.245.255.0/24
198.245.96.0/20
198.55.16.0/21
198.55.24.0/23
199.116.56.0/21
199.119.248.0/22
199.255.116.0/22
199.27.96.0/21
199.7.168.0/22
199.71.93.0/24
199.7.208.0/22
199.85.204.0/22
199.91.76.0/22
200.50.0.0/19
200.5.0.0/21
200.5.8.0/24
200.5.11.0/24
204.124.99.0/24
204.144.78.0/24
204.15.144.0/21
204.27.224.0/24
206.248.64.0/18
206.51.0.0/24
207.150.240.0/20
207.166.112.0/20
207.174.136.0/24
207.204.128.0/18
208.54.176.0/20
208.80.236.0/22
208.81.168.0/21
208.95.36.0/22
209.91.192.0/18
212.133.46.64/29
212.63.179.12/30
212.63.188.46/32
23.190.0.0/24
24.137.224.0/19
24.138.192.0/18
24.139.64.0/18
24.139.128.0/17
24.157.16.0/20
24.171.192.0/18
24.227.0.0/19
24.41.128.0/17
24.42.0.0/18
24.48.192.0/18
24.50.192.0/18
24.54.192.0/18
24.55.160.0/19
24.55.64.0/18
52.129.48.0/20
57.91.208.0/20
63.131.240.0/20
63.135.240.0/20
64.178.192.0/19
64.185.192.0/19
64.237.128.0/17
64.247.160.0/20
64.89.0.0/20
64.89.192.0/20
65.23.192.0/18
65.38.192.0/19
66.129.160.0/20
66.230.248.0/22
66.231.160.0/20
66.50.0.0/16
67.203.192.0/18
67.206.192.0/18
67.215.96.0/21
67.215.104.0/22
67.224.128.0/17
70.35.128.0/20
70.45.0.0/16
72.249.208.0/21
72.50.0.0/17
74.115.200.0/22
74.120.24.0/21
74.213.64.0/18
74.85.156.0/23
76.72.240.0/20
76.76.192.0/20
82.138.142.0/25
