109.233.80.0/21
109.235.104.0/21
185.21.116.0/23
185.21.118.0/24
185.21.119.32/27
185.21.119.64/26
185.21.119.128/25
185.45.40.0/24
185.45.42.0/23
185.62.32.0/22
185.86.60.0/22
194.0.27.0/24
194.183.64.0/20
194.183.80.0/21
194.183.88.0/22
194.183.93.0/24
194.183.94.0/23
194.21.122.0/24
195.112.182.77/32
212.21.41.128/25
212.21.42.0/25
212.21.43.128/25
212.63.164.80/30
213.152.194.96/27
213.152.194.128/26
46.36.201.146/31
46.36.201.148/31
46.36.201.150/32
57.79.208.0/21
62.94.19.192/28
77.242.208.0/20
79.99.193.0/27
79.99.199.40/29
88.202.107.64/28
88.202.111.64/28
89.186.32.0/19
94.232.112.0/21
