109.104.160.0/19
109.106.0.0/19
109.108.224.0/19
109.108.64.0/19
109.122.0.0/18
109.162.0.0/17
109.196.176.0/20
109.197.166.0/23
109.197.216.0/21
109.200.128.0/21
109.200.136.0/22
109.200.144.0/21
109.200.152.0/23
109.200.154.0/24
109.200.155.0/27
109.200.155.32/28
109.200.155.248/29
109.200.156.0/24
109.200.157.0/28
109.200.157.144/28
109.200.157.160/29
109.200.157.176/29
109.200.157.184/32
109.200.157.192/26
109.200.157.24/29
109.200.157.96/27
109.200.157.128/29
109.200.159.176/29
109.200.159.192/26
109.200.159.8/29
109.200.159.16/28
109.200.159.32/27
109.200.159.64/26
109.200.159.128/27
109.200.224.0/19
109.206.32.0/19
109.207.112.0/20
109.207.192.0/20
109.227.64.0/18
109.229.0.0/19
109.232.252.0/24
109.233.58.0/24
109.235.8.0/21
109.237.80.0/20
109.248.32.0/23
109.251.0.0/16
109.254.0.0/16
109.68.40.0/21
109.70.104.0/21
109.72.112.0/20
109.72.152.0/22
109.75.192.0/20
109.86.0.0/15
109.94.160.0/20
109.95.32.0/20
109.95.48.0/21
128.0.104.0/23
128.0.168.0/21
128.124.0.0/16
130.0.232.0/21
130.0.32.0/19
130.180.208.0/20
130.185.0.0/18
134.249.0.0/16
141.101.0.0/19
141.105.128.0/20
141.138.96.0/19
141.170.224.0/19
141.8.144.0/24
141.8.147.160/29
141.8.174.0/24
141.8.175.0/27
141.8.175.32/28
141.8.175.48/29
141.8.175.192/28
141.8.175.208/29
141.8.175.224/27
141.8.175.64/26
141.8.175.128/28
146.0.80.0/21
146.120.108.0/23
146.120.24.0/21
146.120.89.0/24
146.185.250.0/24
149.154.176.0/20
151.0.0.0/19
151.0.32.0/20
151.0.48.0/22
151.0.56.0/21
151.249.96.0/21
156.67.48.0/22
159.122.112.56/29
159.122.114.240/28
159.122.11.8/29
159.122.212.48/28
159.122.81.160/29
159.146.128.0/17
159.160.0.0/16
159.180.44.0/24
159.224.0.0/16
159.253.137.16/30
159.8.0.96/29
159.8.124.96/28
159.8.212.48/28
159.8.244.64/28
159.8.41.120/29
159.8.42.216/29
159.8.69.64/28
159.8.71.140/30
159.8.9.224/29
161.202.96.0/28
168.1.74.224/28
169.50.5.160/28
169.50.5.176/29
169.50.8.16/29
169.53.162.192/28
169.53.20.176/28
169.54.13.128/28
169.54.194.56/29
169.55.60.61/32
169.55.61.15/32
169.55.77.160/28
169.55.84.20/32
171.25.168.0/22
171.25.204.0/22
171.25.236.0/22
171.25.241.0/24
176.100.0.0/19
176.100.160.0/19
176.100.56.0/21
176.101.184.0/21
176.101.192.0/19
176.101.96.0/19
176.102.0.0/18
176.102.192.0/19
176.103.0.0/19
176.103.112.0/21
176.103.200.0/21
176.103.208.0/21
176.103.224.0/20
176.103.48.0/20
176.103.64.0/21
176.104.0.0/18
176.104.64.0/19
176.104.96.0/21
176.104.168.0/21
176.104.184.0/21
176.104.224.0/19
176.105.0.0/17
176.105.160.0/19
176.105.192.0/19
176.106.0.0/21
176.106.192.0/19
176.107.128.0/19
176.107.176.0/20
176.107.192.0/21
176.107.48.0/20
176.107.88.0/21
176.108.0.0/19
176.108.232.0/21
176.108.96.0/19
176.109.168.0/21
176.109.176.0/20
176.109.192.0/18
176.110.0.0/18
176.109.8.0/21
176.110.102.0/23
176.111.176.0/20
176.111.240.0/21
176.111.32.0/19
176.111.80.0/20
176.112.0.0/19
176.112.120.0/21
176.113.144.0/20
176.113.160.0/20
176.113.208.0/20
176.113.224.0/19
176.114.0.0/20
176.115.96.0/21
176.116.192.0/21
176.116.64.0/19
176.117.160.0/19
176.117.64.0/19
176.118.144.0/21
176.118.40.0/21
176.118.48.0/21
176.119.0.0/20
176.119.232.0/21
176.119.24.0/21
176.119.64.0/18
176.120.32.0/19
176.120.96.0/20
176.120.112.0/21
176.121.0.0/20
176.121.192.0/20
176.121.224.0/19
176.121.72.0/21
176.122.88.0/21
176.122.96.0/19
176.122.128.0/18
176.123.220.0/23
176.124.0.0/19
176.124.128.0/21
176.124.138.0/23
176.124.228.0/22
176.124.232.0/21
176.125.32.0/19
176.126.161.0/24
176.126.162.0/23
176.126.60.0/22
176.126.96.0/19
176.126.128.0/19
176.221.48.0/21
176.241.104.0/21
176.241.128.0/19
176.32.0.0/20
176.32.214.160/29
176.36.0.0/14
176.56.188.0/24
176.57.48.0/20
176.67.0.0/19
176.67.84.152/29
176.8.0.0/16
176.96.192.0/19
176.96.72.0/21
176.97.0.0/21
176.97.112.0/20
176.97.56.0/21
176.98.0.0/19
176.98.64.0/19
178.133.0.0/16
178.136.0.0/15
178.150.0.0/15
178.154.154.0/23
178.158.0.0/16
178.159.176.0/20
178.159.208.0/20
178.159.224.0/20
178.159.32.0/20
178.159.96.0/20
178.162.137.96/27
178.162.137.128/26
178.162.137.192/27
178.162.138.32/27
178.162.138.64/26
178.162.138.128/27
178.162.144.0/25
178.162.145.128/25
178.165.0.0/17
178.16.80.0/21
178.16.88.0/24
178.20.152.0/21
178.209.64.0/19
178.210.128.0/19
178.210.192.0/19
178.211.96.0/19
178.211.128.0/19
178.212.192.0/21
178.212.232.0/21
178.212.240.0/21
178.212.96.0/20
178.213.0.0/21
178.213.104.0/21
178.213.168.0/21
178.213.184.0/21
178.214.160.0/19
178.214.192.0/19
178.215.160.0/19
178.215.240.0/20
178.216.0.0/20
178.216.16.0/21
178.216.120.0/21
178.216.168.0/21
178.216.184.0/21
178.216.224.0/20
178.216.96.0/21
178.217.160.0/21
178.217.200.0/21
178.217.208.0/21
178.218.64.0/20
178.219.192.0/20
178.219.240.0/20
178.219.80.0/20
178.23.136.0/21
178.236.226.212/30
178.251.104.0/21
178.255.176.0/21
178.54.0.0/16
178.74.192.0/18
178.92.0.0/14
185.10.208.0/22
185.102.164.0/22
185.102.184.0/22
185.103.40.0/22
185.104.249.0/24
185.105.108.0/22
185.109.52.0/22
185.110.134.0/23
185.111.116.0/22
185.111.92.0/22
185.112.103.0/24
185.112.12.0/22
185.112.172.0/22
185.11.28.0/22
185.114.136.0/22
185.115.36.0/22
185.1.16.0/24
185.117.240.0/22
185.11.80.0/22
185.119.212.0/22
185.119.76.0/22
185.120.132.0/22
185.121.104.0/21
185.121.116.0/22
185.12.112.0/22
185.12.140.0/22
185.124.168.0/22
185.126.112.0/22
185.126.252.0/23
185.127.244.0/22
185.12.8.0/22
185.128.232.0/22
185.128.8.0/22
185.128.92.0/22
185.129.64.193/32
185.129.64.194/31
185.129.64.196/30
185.129.64.200/29
185.129.64.208/29
185.129.64.216/30
185.129.64.220/31
185.129.64.222/32
185.130.245.193/32
185.130.245.194/31
185.130.245.196/30
185.130.245.200/29
185.130.245.208/29
185.130.245.216/30
185.130.245.220/31
185.130.245.222/32
185.130.52.0/22
185.132.0.0/22
185.13.248.0/22
185.13.4.0/22
185.137.216.0/22
185.137.36.0/22
185.138.228.0/22
185.138.76.0/22
185.1.39.0/24
185.139.154.225/32
185.139.154.226/31
185.139.154.228/30
185.139.154.232/29
185.139.154.240/29
185.139.154.248/30
185.139.154.252/31
185.139.154.254/32
185.139.163.225/32
185.139.163.226/31
185.139.163.228/30
185.139.163.232/29
185.139.163.240/29
185.139.163.248/30
185.139.163.252/31
185.139.163.254/32
185.139.167.161/32
185.139.167.162/31
185.139.167.164/30
185.139.167.168/29
185.139.167.176/29
185.139.167.184/30
185.139.167.188/31
185.139.167.190/32
185.139.173.97/32
185.139.173.98/31
185.139.173.100/30
185.139.173.104/29
185.139.173.112/29
185.139.173.120/30
185.139.173.124/31
185.139.173.126/32
185.139.200.0/22
185.139.52.0/22
185.141.73.97/32
185.141.73.98/31
185.141.73.100/30
185.141.73.104/29
185.141.73.112/29
185.141.73.120/30
185.141.73.124/31
185.141.73.126/32
185.141.89.33/32
185.141.89.34/31
185.141.89.36/30
185.141.89.40/29
185.141.89.48/29
185.141.89.56/30
185.141.89.60/31
185.141.89.62/32
185.14.192.0/24
185.14.195.128/25
185.142.164.0/22
185.142.230.33/32
185.142.230.34/31
185.142.230.36/30
185.142.230.40/29
185.142.230.48/29
185.142.230.56/30
185.142.230.60/31
185.142.230.62/32
185.143.100.0/22
185.143.13.129/32
185.143.13.130/31
185.143.13.132/30
185.143.13.136/29
185.143.13.144/29
185.143.13.152/30
185.143.13.156/31
185.143.13.158/32
185.143.144.0/22
185.143.56.0/22
185.144.99.0/24
185.145.104.0/22
185.145.180.0/22
185.145.252.0/22
185.145.72.0/22
185.146.120.0/22
185.147.26.0/23
185.147.96.0/22
185.149.12.0/22
185.149.196.0/22
185.149.20.0/22
185.149.40.0/22
185.1.50.0/23
185.150.180.0/22
185.151.104.0/22
185.151.184.0/22
185.151.84.0/22
185.153.120.0/22
185.153.180.0/22
185.15.4.0/22
185.154.180.0/22
185.154.212.0/22
185.155.88.0/22
185.156.40.0/22
185.156.52.0/22
185.157.76.0/22
185.158.208.0/22
185.159.140.0/22
185.160.60.0/22
185.160.64.0/22
185.160.88.0/22
185.16.124.0/22
185.1.62.0/23
185.16.228.0/22
185.16.28.0/22
185.17.124.0/22
185.19.244.0/22
185.19.4.0/22
185.20.216.0/22
185.2.108.0/22
185.21.176.0/22
185.2.212.0/22
185.22.16.0/22
185.23.104.0/22
185.23.164.0/22
185.25.116.0/22
185.28.108.0/22
185.28.236.0/22
185.29.236.0/22
185.29.252.0/22
185.30.200.0/22
185.30.84.0/22
185.3.148.0/22
185.31.84.0/22
185.32.60.0/22
185.33.140.0/22
185.34.224.0/22
185.35.100.0/22
185.35.8.0/22
185.36.188.0/22
185.36.196.0/22
185.36.56.0/22
185.37.192.0/22
185.38.208.0/22
185.38.216.0/22
185.38.72.0/22
185.39.196.0/22
185.39.224.0/22
185.39.28.0/22
185.39.72.0/22
185.40.48.0/22
185.41.192.0/22
185.41.20.0/22
185.42.128.0/22
185.4.236.0/22
185.42.40.0/22
185.43.224.0/22
185.43.236.0/22
185.43.248.0/22
185.4.40.0/22
185.44.84.0/22
185.45.244.0/22
185.46.148.0/22
185.46.188.0/22
185.46.220.0/22
185.46.236.0/22
185.46.248.0/22
185.46.88.0/22
185.48.196.0/22
185.50.148.0/24
185.50.248.0/22
185.5.104.0/22
185.51.146.156/32
185.51.146.232/32
185.5.252.0/22
185.53.76.0/22
185.56.16.0/22
185.56.161.240/28
185.58.140.211/32
185.59.156.0/22
185.61.156.0/22
185.6.184.0/22
185.63.32.0/24
185.63.34.0/24
185.63.73.0/24
185.65.244.0/22
185.67.1.0/24
185.67.2.0/23
185.68.16.0/22
185.69.152.0/22
185.70.108.0/22
185.70.128.0/22
185.70.16.0/22
185.72.48.0/22
185.73.70.0/24
185.76.12.0/22
185.76.68.0/22
185.77.100.0/22
185.80.152.0/22
185.82.215.0/24
185.8.40.0/22
185.84.148.0/22
185.86.0.0/22
185.86.57.0/24
185.86.58.0/23
185.86.76.0/22
185.89.102.0/23
185.91.72.0/23
185.91.74.0/24
185.93.184.0/24
185.93.186.0/23
185.9.40.0/22
185.94.164.0/25
185.94.164.128/32
185.94.216.0/22
185.95.20.0/22
185.96.188.0/22
188.0.64.0/18
188.114.230.87/32
188.114.232.86/32
188.114.233.193/32
188.114.238.61/32
188.114.241.122/32
188.114.249.240/32
188.115.128.0/18
188.130.176.0/22
188.130.246.0/24
188.130.251.0/24
188.138.10.188/32
188.138.102.111/32
188.138.102.112/31
188.138.105.23/32
188.138.105.42/32
188.138.105.47/32
188.138.105.48/31
188.138.105.5/32
188.138.105.6/32
188.138.105.59/32
188.138.105.63/32
188.138.105.76/31
188.138.105.78/32
188.138.105.83/32
188.138.105.84/30
188.138.105.88/31
188.138.105.90/32
188.138.108.165/32
188.138.108.166/31
188.138.111.116/32
188.138.111.88/31
188.138.120.149/32
188.138.125.220/32
188.138.126.53/32
188.138.25.211/32
188.138.25.66/32
188.138.26.166/32
188.138.26.168/31
188.138.28.160/27
188.138.68.246/32
188.138.69.124/32
188.138.70.14/32
188.138.70.173/32
188.138.82.163/32
188.163.0.0/16
188.190.0.0/18
188.190.64.0/19
188.190.160.0/19
188.190.192.0/18
188.191.144.0/21
188.191.232.0/21
188.191.32.0/20
188.191.64.0/20
188.191.96.0/20
188.211.163.0/24
188.214.135.0/29
188.214.15.0/24
188.214.9.0/24
188.230.0.0/17
188.231.128.0/17
188.239.0.0/16
188.247.96.0/19
188.72.101.0/24
188.72.244.192/26
188.95.152.0/21
192.102.6.0/23
192.162.108.0/22
192.162.112.0/21
192.162.132.0/22
192.162.140.0/22
192.162.152.0/22
192.162.19.0/24
192.162.200.0/22
192.162.208.0/22
192.162.224.0/22
192.162.232.0/21
192.162.32.0/22
192.162.76.0/22
192.162.80.0/22
192.166.100.0/22
192.166.112.0/23
192.166.128.0/21
192.166.144.0/23
192.245.152.0/24
193.0.142.0/23
193.0.204.0/22
193.0.216.0/22
193.0.220.0/23
193.0.223.0/24
193.0.228.0/24
193.0.240.0/24
193.0.247.0/24
193.0.61.0/24
193.104.133.0/24
193.104.16.0/24
193.104.178.0/24
193.104.182.0/23
193.104.189.0/24
193.104.203.0/24
193.104.208.0/23
193.104.210.0/24
193.104.213.0/24
193.104.242.0/24
193.104.249.0/24
193.104.58.0/24
193.104.7.0/24
193.104.85.0/24
193.104.96.0/24
193.105.124.0/24
193.105.135.0/24
193.105.152.0/24
193.105.164.0/24
193.105.189.0/24
193.105.201.0/24
193.105.210.0/24
193.105.216.0/24
193.105.219.0/24
193.105.249.0/24
193.105.254.0/24
193.105.30.0/24
193.105.41.0/24
193.105.56.0/24
193.105.62.0/24
193.105.70.0/24
193.105.7.0/24
193.105.92.0/24
193.106.136.0/22
193.106.144.0/22
193.106.184.0/22
193.106.200.0/22
193.106.211.0/24
193.106.220.0/22
193.106.236.0/23
193.106.24.0/21
193.106.56.0/21
193.106.64.0/22
193.106.80.0/22
193.107.104.0/21
193.107.128.0/21
193.107.136.0/22
193.107.168.0/21
193.107.176.0/22
193.107.200.0/22
193.107.224.0/22
193.107.24.0/22
193.107.244.0/22
193.107.40.0/22
193.107.72.0/22
193.107.80.0/22
193.108.102.0/23
193.108.104.0/23
193.108.116.0/22
193.108.120.0/22
193.108.128.0/23
193.108.162.0/23
193.108.170.0/23
193.108.209.0/24
193.108.226.0/23
193.108.236.0/23
193.108.240.0/22
193.108.248.0/22
193.108.38.0/23
193.108.44.0/23
193.108.48.0/22
193.108.56.0/22
193.109.118.0/24
193.109.128.0/23
193.109.144.0/22
193.109.160.0/21
193.109.216.0/24
193.109.248.0/23
193.109.80.0/24
193.109.8.0/22
193.110.100.0/23
193.110.106.0/23
193.110.112.0/22
193.110.124.0/22
193.110.144.0/24
193.110.156.0/24
193.110.16.0/21
193.110.162.0/23
193.110.168.0/23
193.110.172.0/22
193.110.176.0/23
193.110.184.0/23
193.110.188.0/23
193.110.72.0/21
193.110.89.0/24
193.111.0.0/23
193.111.114.0/23
193.111.126.0/23
193.111.156.0/22
193.111.173.0/24
193.111.188.0/22
193.111.204.0/23
193.111.239.0/24
193.111.240.0/22
193.111.48.0/22
193.111.60.0/22
193.111.6.0/23
193.111.8.0/23
193.111.83.0/24
193.111.85.0/24
193.138.132.0/22
193.138.144.0/22
193.138.184.0/22
193.138.236.0/22
193.138.244.0/22
193.138.84.0/24
193.138.87.0/24
193.138.93.0/24
193.142.114.0/24
193.142.124.0/24
193.142.159.0/24
193.142.213.0/24
193.142.218.0/23
193.142.221.0/24
193.150.113.0/24
193.150.122.0/24
193.150.28.0/22
193.150.49.0/24
193.150.56.0/22
193.150.6.0/23
193.150.88.0/23
193.150.96.0/23
193.151.104.0/22
193.151.12.0/22
193.151.240.0/21
193.151.252.0/22
193.151.56.0/22
193.151.88.0/22
193.160.224.0/22
193.160.97.0/24
193.16.101.0/24
193.16.105.0/24
193.161.12.0/22
193.16.158.0/24
193.16.233.0/24
193.16.247.0/24
193.164.130.0/24
193.16.45.0/24
193.16.47.0/24
193.164.92.0/22
193.169.124.0/22
193.169.132.0/22
193.169.146.0/23
193.169.188.0/23
193.169.214.0/23
193.169.240.0/23
193.169.252.0/23
193.169.80.0/23
193.169.86.0/23
193.17.208.0/24
193.17.213.0/24
193.17.216.0/23
193.17.44.0/24
193.17.46.0/24
193.175.194.128/26
193.176.248.0/22
193.17.69.0/24
193.17.75.0/24
193.178.144.0/22
193.178.162.0/24
193.178.187.0/24
193.178.190.0/23
193.178.228.0/23
193.178.236.0/23
193.178.248.0/22
193.178.34.0/24
193.186.15.0/24
193.186.9.0/24
193.187.76.0/22
193.189.126.0/23
193.189.96.0/23
193.19.100.0/23
193.19.108.0/22
193.19.152.0/22
193.19.184.0/22
193.19.228.0/22
193.192.36.0/23
193.19.240.0/21
193.19.252.0/22
193.193.192.0/19
193.194.106.0/23
193.194.108.0/22
193.194.112.0/22
193.194.124.0/22
193.19.74.0/23
193.19.84.0/22
193.200.151.0/24
193.200.161.0/24
193.200.173.0/24
193.200.175.0/24
193.200.179.0/24
193.200.190.0/24
193.200.205.0/24
193.200.209.0/24
193.200.212.0/24
193.200.219.0/24
193.200.22.0/24
193.200.229.0/24
193.200.248.0/24
193.200.255.0/24
193.200.32.0/23
193.200.36.0/22
193.200.64.0/23
193.200.68.0/23
193.200.84.0/23
193.201.100.0/24
193.201.105.0/24
193.201.116.0/23
193.201.147.128/27
193.201.152.128/25
193.201.156.0/25
193.201.175.0/24
193.201.198.0/23
193.201.206.0/23
193.201.216.0/22
193.201.224.0/22
193.201.60.0/22
193.201.80.0/22
193.201.98.0/24
193.202.118.0/24
193.202.21.0/24
193.203.218.0/23
193.203.236.0/23
193.203.48.0/22
193.218.118.0/24
193.218.156.0/22
193.218.184.0/22
193.219.124.0/24
193.22.140.0/24
193.222.140.0/24
193.222.52.0/22
193.223.98.0/24
193.227.115.0/24
193.227.119.0/24
193.227.120.0/24
193.227.206.0/23
193.227.208.0/22
193.227.230.0/23
193.227.250.0/23
193.227.96.0/23
193.228.2.0/24
193.22.84.0/24
193.23.140.0/24
193.23.157.0/24
193.23.175.0/24
193.23.181.0/24
193.23.183.0/24
193.23.225.0/24
193.232.65.0/24
193.23.53.0/24
193.23.58.0/24
193.238.108.0/22
193.238.116.0/22
193.238.152.0/22
193.238.20.0/22
193.238.224.0/22
193.238.32.0/21
193.238.72.0/22
193.238.96.0/22
193.239.128.0/23
193.239.142.0/23
193.239.152.0/23
193.239.170.0/23
193.239.180.0/23
193.239.216.0/23
193.239.228.0/23
193.239.234.0/23
193.239.238.0/23
193.239.24.0/22
193.239.250.0/23
193.239.254.0/23
193.239.68.0/22
193.239.72.0/22
193.242.114.0/24
193.242.156.0/22
193.242.160.0/22
193.242.166.0/24
193.24.220.0/22
193.24.25.0/24
193.24.30.0/24
193.243.152.0/23
193.243.156.0/22
193.243.167.0/24
193.25.176.0/23
193.25.180.0/23
193.254.196.0/23
193.254.216.0/23
193.254.220.0/23
193.254.232.0/23
193.26.13.0/24
193.26.134.0/24
193.26.20.0/24
193.26.209.0/24
193.26.27.0/24
193.26.3.0/24
193.27.196.0/23
193.27.208.0/23
193.27.242.0/23
193.27.80.0/23
193.28.156.0/24
193.28.177.0/24
193.28.184.0/24
193.28.186.0/24
193.28.200.0/24
193.28.85.0/24
193.28.87.0/24
193.28.92.0/24
193.29.16.0/24
193.29.200.0/24
193.29.203.0/24
193.29.204.0/24
193.29.220.0/24
193.30.240.0/21
193.30.253.0/24
193.32.12.0/22
193.32.21.0/24
193.32.57.0/24
193.33.104.0/23
193.33.196.0/23
193.33.202.0/23
193.33.206.0/23
193.33.212.0/23
193.33.44.0/23
193.33.48.0/23
193.33.54.0/23
193.33.64.0/23
193.34.140.0/23
193.34.154.0/23
193.34.168.0/23
193.34.172.0/23
193.34.20.0/22
193.34.203.0/25
193.34.216.0/22
193.34.60.0/22
193.34.72.0/22
193.34.92.0/22
193.34.96.0/22
193.35.25.0/24
193.37.133.0/24
193.37.141.0/24
193.37.156.0/24
193.39.114.0/24
193.39.118.0/24
193.39.69.0/24
193.39.72.0/24
193.39.75.0/24
193.39.76.0/23
193.41.128.0/22
193.41.184.0/22
193.41.218.0/23
193.41.239.0/24
193.41.4.0/23
193.41.48.0/22
193.41.60.0/22
193.41.80.0/24
193.41.88.0/24
193.42.148.0/24
193.42.156.0/24
193.43.210.0/23
193.43.224.0/22
193.43.248.0/21
193.43.95.0/24
193.46.201.0/24
193.46.202.0/24
193.46.210.0/24
193.46.46.0/24
193.46.66.0/24
193.46.81.0/24
193.46.86.0/24
193.46.89.0/24
193.47.137.0/24
193.47.166.0/24
193.47.189.0/24
193.47.85.0/24
193.53.83.0/24
193.53.89.0/24
193.58.246.0/24
193.8.201.0/24
193.84.17.0/24
193.84.22.0/23
193.84.50.0/24
193.8.46.0/23
193.84.72.0/24
193.84.77.0/24
193.8.78.0/23
193.9.158.0/24
193.9.250.0/23
193.93.100.0/22
193.93.108.0/22
193.93.116.0/22
193.93.12.0/22
193.93.16.0/22
193.93.160.0/22
193.93.168.0/22
193.93.184.0/21
193.93.216.0/22
193.93.228.0/22
193.93.48.0/21
193.93.76.0/22
194.0.131.0/24
194.0.138.0/24
194.0.148.0/24
194.0.150.0/24
194.0.157.0/24
194.0.187.0/24
194.0.200.0/24
194.0.206.0/24
194.0.218.0/24
194.0.237.0/24
194.0.52.0/22
194.0.56.0/23
194.0.88.0/22
194.105.136.0/23
194.105.144.0/23
194.106.208.0/23
194.106.216.0/22
194.107.115.0/24
194.107.117.0/24
194.110.126.0/24
194.110.129.0/24
194.110.219.0/24
194.110.252.0/24
194.110.6.0/24
194.110.79.0/24
194.11.225.0/24
194.114.132.0/22
194.1.159.0/24
194.116.162.0/23
194.116.170.0/23
194.116.194.0/23
194.116.232.0/23
194.116.238.0/23
194.116.244.0/23
194.117.252.0/23
194.1.193.0/24
194.1.195.0/24
194.1.220.0/23
194.125.224.0/22
194.125.244.0/23
194.126.180.0/22
194.126.204.0/24
194.126.224.0/24
194.12.64.0/18
194.140.228.0/24
194.140.239.0/24
194.143.136.0/23
194.143.144.0/22
194.145.117.0/24
194.145.198.0/23
194.145.202.0/23
194.145.214.0/23
194.145.216.0/23
194.145.220.0/23
194.145.227.0/24
194.146.110.0/24
194.146.112.0/24
194.146.132.0/22
194.146.136.0/21
194.146.180.0/22
194.146.188.0/22
194.146.196.0/22
194.146.228.0/22
194.149.92.0/24
194.150.192.0/23
194.150.220.0/23
194.150.232.0/23
194.150.72.0/22
194.15.112.0/22
194.15.147.0/24
194.153.128.0/23
194.153.148.0/23
194.165.46.0/24
194.165.6.0/23
194.165.63.0/24
194.169.204.0/22
194.169.210.0/24
194.169.238.0/24
194.176.97.0/24
194.177.0.0/22
194.177.24.0/22
194.183.160.0/19
194.187.104.0/21
194.187.128.0/22
194.187.152.0/22
194.187.208.0/22
194.187.216.0/22
194.187.28.0/22
194.187.48.0/22
194.213.104.0/22
194.213.110.0/23
194.213.120.0/23
194.213.23.0/24
194.221.16.0/26
194.24.182.0/23
194.24.184.0/22
194.242.116.0/22
194.24.236.0/23
194.24.246.0/23
194.242.53.0/24
194.242.59.0/24
194.242.60.0/24
194.242.96.0/21
194.246.104.0/23
194.246.116.0/23
194.246.120.0/23
194.246.74.0/23
194.246.77.0/24
194.246.99.0/24
194.247.12.0/23
194.247.16.0/22
194.247.172.0/22
194.247.176.0/22
194.247.35.0/24
194.247.37.0/24
194.247.42.0/24
194.247.60.0/24
194.28.100.0/22
194.28.132.0/22
194.28.140.0/22
194.28.144.0/22
194.28.16.0/22
194.28.172.0/22
194.28.176.0/21
194.28.196.0/22
194.28.36.0/22
194.28.4.0/22
194.28.52.0/22
194.28.60.0/22
194.28.64.0/21
194.28.84.0/22
194.28.88.0/22
194.29.205.0/24
194.29.60.0/22
194.30.163.0/24
194.30.170.0/24
194.30.172.0/24
194.31.248.0/23
194.31.44.0/22
194.33.109.0/24
194.33.181.0/24
194.33.188.0/23
194.37.248.0/24
194.42.106.0/23
194.42.112.0/23
194.42.192.0/20
194.44.0.0/16
194.48.209.0/24
194.48.212.0/24
194.50.114.0/24
194.50.119.0/24
194.50.125.0/24
194.50.144.0/22
194.50.161.0/24
194.50.167.0/24
194.50.169.0/24
194.50.241.0/24
194.50.254.0/24
194.50.51.0/24
194.50.79.0/24
194.50.81.0/24
194.50.85.0/24
194.50.9.0/24
194.50.98.0/24
194.54.152.0/21
194.54.160.0/22
194.54.184.0/22
194.54.80.0/22
194.54.88.0/22
194.60.252.0/22
194.60.69.0/24
194.60.77.0/24
194.6.231.0/24
194.6.232.0/23
194.79.20.0/22
194.79.60.0/22
194.79.8.0/22
194.8.144.0/22
194.8.156.0/22
194.8.240.0/23
194.8.248.0/23
194.8.51.0/24
194.8.56.0/24
194.8.64.0/23
194.88.1.0/24
194.88.150.0/23
194.88.152.0/23
194.88.206.0/23
194.88.218.0/23
194.88.220.0/23
194.9.14.0/23
194.9.26.0/23
194.93.160.0/19
194.9.36.0/23
194.9.50.0/23
194.9.70.0/23
195.10.210.0/24
195.10.218.0/24
195.110.56.0/23
195.112.175.184/30
195.112.180.183/32
195.114.120.0/23
195.114.128.0/19
195.114.30.0/23
195.114.96.0/23
195.123.0.0/17
195.123.128.0/18
195.123.192.0/20
195.123.224.0/19
195.12.36.0/22
195.12.56.0/22
195.128.139.0/24
195.128.16.0/22
195.128.182.0/23
195.128.230.0/23
195.128.248.0/23
195.128.252.0/23
195.130.219.0/24
195.135.196.0/22
195.137.167.0/24
195.137.185.0/24
195.137.196.0/23
195.137.202.0/23
195.137.206.0/23
195.137.218.0/23
195.137.226.0/23
195.137.232.0/23
195.137.240.0/23
195.137.244.0/23
195.137.250.0/23
195.137.254.0/23
195.138.160.0/19
195.138.193.0/24
195.138.198.0/24
195.138.217.0/24
195.138.218.0/23
195.138.64.0/19
195.140.160.0/22
195.140.168.0/22
195.140.176.0/22
195.140.228.0/22
195.140.244.0/22
195.14.122.0/23
195.14.124.0/23
195.14.17.0/24
195.144.14.0/24
195.144.21.0/24
195.144.25.0/24
195.144.28.0/24
195.149.106.0/24
195.149.108.0/23
195.149.112.0/24
195.149.114.0/24
195.149.117.0/24
195.149.125.0/24
195.149.70.0/24
195.149.88.0/24
195.149.96.0/24
195.160.192.0/22
195.160.204.0/22
195.160.220.0/22
195.160.232.0/22
195.162.0.0/23
195.162.64.0/23
195.162.70.0/23
195.162.74.0/23
195.162.80.0/22
195.162.88.0/22
195.16.76.0/22
195.16.88.0/22
195.170.179.0/24
195.177.116.0/22
195.177.124.0/22
195.177.208.0/23
195.177.222.0/23
195.177.236.0/22
195.177.240.0/23
195.177.72.0/22
195.177.92.0/22
195.178.10.0/23
195.178.104.0/23
195.178.128.0/19
195.178.18.0/23
195.178.30.0/23
195.18.12.0/22
195.18.16.0/22
195.182.0.0/24
195.182.192.0/22
195.182.202.0/23
195.182.21.0/24
195.182.22.0/24
195.182.63.0/24
195.182.7.0/24
195.18.28.0/22
195.184.192.0/19
195.184.70.0/23
195.184.80.0/23
195.189.104.0/22
195.189.132.0/23
195.189.196.0/23
195.189.200.0/23
195.189.214.0/23
195.189.226.0/23
195.189.228.0/23
195.189.234.0/23
195.189.240.0/23
195.189.246.0/23
195.189.248.0/23
195.189.36.0/22
195.189.44.0/22
195.189.48.0/22
195.189.60.0/22
195.189.8.0/22
195.190.13.0/24
195.190.152.0/24
195.191.104.0/23
195.191.12.0/23
195.191.126.0/23
195.191.138.0/23
195.191.168.0/23
195.191.178.0/23
195.191.194.0/23
195.191.200.0/23
195.191.214.0/23
195.191.226.0/23
195.191.234.0/23
195.191.24.0/23
195.191.246.0/23
195.191.38.0/23
195.191.56.0/22
195.191.72.0/23
195.191.80.0/23
195.191.90.0/23
195.200.196.0/24
195.200.244.0/23
195.200.250.0/23
195.200.64.0/23
195.200.90.0/23
195.20.118.0/23
195.20.124.0/23
195.20.130.0/24
195.20.148.0/24
195.20.154.0/24
195.20.4.0/22
195.206.232.0/23
195.206.238.0/23
195.20.96.0/23
195.211.108.0/22
195.211.116.0/22
195.211.136.0/21
195.211.144.0/21
195.211.152.0/22
195.211.172.0/22
195.211.184.0/21
195.211.208.0/21
195.211.228.0/22
195.211.240.0/22
195.211.252.0/22
195.211.60.0/22
195.211.84.0/22
195.214.192.0/21
195.214.208.0/21
195.214.220.0/22
195.214.236.0/22
195.216.204.0/22
195.216.210.0/23
195.216.226.0/24
195.216.248.0/24
195.219.39.0/24
195.2.204.0/23
195.22.108.0/22
195.22.112.0/22
195.22.130.0/23
195.22.132.0/23
195.22.140.0/23
195.222.124.0/22
195.2.236.0/23
195.225.112.0/22
195.225.144.0/22
195.225.156.0/22
195.225.172.0/22
195.225.228.0/22
195.225.48.0/23
195.225.52.0/23
195.226.192.0/24
195.226.213.0/24
195.230.103.0/24
195.230.112.0/24
195.230.115.0/24
195.230.119.0/24
195.230.125.0/24
195.230.127.0/24
195.230.128.0/19
195.230.96.0/24
195.234.112.0/22
195.234.132.0/24
195.234.148.0/24
195.234.174.0/24
195.234.212.0/22
195.234.220.0/22
195.234.4.0/22
195.234.68.0/22
195.234.72.0/21
195.238.108.0/22
195.238.112.0/21
195.238.176.0/21
195.238.188.0/22
195.238.92.0/23
195.24.128.0/19
195.242.114.0/23
195.242.150.0/23
195.242.161.0/24
195.242.179.0/24
195.242.200.0/22
195.242.218.0/23
195.24.234.0/23
195.24.242.0/23
195.24.252.0/23
195.242.80.0/23
195.242.94.0/23
195.244.4.0/23
195.244.8.0/23
195.245.118.0/23
195.245.120.0/23
195.245.200.0/24
195.245.215.0/24
195.245.221.0/24
195.245.253.0/24
195.246.217.0/24
195.248.160.0/19
195.248.224.0/23
195.248.234.0/23
195.248.93.0/24
195.250.36.0/24
195.250.43.0/24
195.250.47.0/24
195.250.62.0/24
195.254.150.0/23
195.26.16.0/22
195.26.64.0/22
195.26.84.0/22
195.26.92.0/22
195.28.182.0/23
195.28.30.0/23
195.3.128.0/21
195.3.148.0/22
195.3.156.0/22
195.3.196.0/22
195.3.204.0/22
195.3.224.0/22
195.3.236.0/22
195.3.244.0/22
195.34.196.0/22
195.34.204.0/22
195.34.74.0/23
195.34.90.0/23
195.34.94.0/23
195.35.65.0/24
195.38.16.0/23
195.38.18.0/24
195.39.196.0/23
195.39.210.0/23
195.39.232.0/23
195.39.240.0/22
195.39.248.0/23
195.4.133.80/29
195.42.126.0/23
195.42.130.0/23
195.42.136.0/23
195.43.146.0/24
195.43.148.0/24
195.43.40.0/22
195.43.70.0/23
195.46.32.0/22
195.46.56.0/22
195.47.202.0/24
195.47.219.0/24
195.47.248.0/24
195.47.253.0/24
195.49.148.0/22
195.49.164.0/22
195.5.0.0/18
195.5.106.0/23
195.5.124.0/23
195.5.126.0/24
195.5.184.0/24
195.54.162.0/23
195.54.52.0/23
195.58.224.0/19
195.60.168.0/23
195.60.174.0/23
195.60.184.0/23
195.60.200.0/22
195.60.224.0/21
195.60.66.0/23
195.60.70.0/23
195.60.92.192/26
195.62.14.0/23
195.62.24.0/23
195.62.36.0/23
195.64.136.0/23
195.64.142.0/23
195.64.148.0/23
195.64.154.0/23
195.64.162.0/23
195.64.166.0/23
195.64.182.0/23
195.64.184.0/23
195.64.190.0/23
195.64.224.0/19
195.66.105.0/24
195.66.110.0/24
195.66.136.0/22
195.66.140.0/23
195.66.146.0/23
195.66.156.0/23
195.66.192.0/19
195.66.65.0/24
195.66.66.0/24
195.66.79.0/24
195.66.93.0/24
195.68.196.0/23
195.68.202.0/23
195.68.210.0/23
195.68.216.0/23
195.68.222.0/23
195.69.132.0/22
195.69.176.0/22
195.69.184.0/22
195.69.196.0/22
195.69.200.0/22
195.69.220.0/22
195.69.244.0/22
195.69.248.0/22
195.69.76.0/22
195.69.84.0/22
195.72.144.0/22
195.72.156.0/22
195.74.67.0/24
195.74.72.0/24
195.78.100.0/23
195.78.104.0/23
195.78.112.0/23
195.78.232.0/22
195.78.244.0/22
195.78.252.0/22
195.78.38.0/23
195.78.42.0/23
195.78.58.0/23
195.78.68.0/23
195.78.92.0/23
195.78.96.0/23
195.80.140.0/23
195.80.232.0/24
195.81.74.120/29
195.8.200.0/23
195.82.150.0/23
195.8.40.0/22
195.85.198.0/24
195.85.208.0/24
195.85.214.0/24
195.85.219.0/24
195.85.250.0/24
195.8.56.0/23
195.88.124.0/23
195.88.138.0/23
195.88.158.0/23
195.88.242.0/23
195.88.26.0/23
195.88.42.0/23
195.88.72.0/23
195.88.76.0/22
195.93.138.0/23
195.93.154.0/23
195.93.172.0/23
195.93.190.0/23
195.93.204.0/23
195.93.212.0/23
195.95.139.0/24
195.95.147.0/24
195.95.151.0/24
195.95.157.0/24
195.95.159.0/24
195.95.165.0/24
195.95.171.0/24
195.95.189.0/24
195.95.202.0/23
195.95.206.0/23
195.95.210.0/23
195.95.222.0/23
195.95.232.0/23
212.109.32.0/19
212.111.192.0/19
212.113.32.0/22
212.113.36.0/23
212.113.39.0/24
212.113.40.0/21
212.113.48.0/20
212.115.224.0/19
212.15.128.0/19
212.1.64.0/18
212.178.0.0/19
212.2.128.0/19
212.22.192.0/19
212.26.128.0/19
212.38.109.112/28
212.38.96.160/28
212.3.96.0/19
212.40.32.0/19
212.42.64.0/19
212.47.192.160/27
212.47.192.192/26
212.47.193.0/26
212.47.193.64/27
212.47.195.96/27
212.47.197.0/26
212.47.197.64/30
212.47.197.208/28
212.47.197.224/27
212.47.197.72/29
212.47.197.80/29
212.47.197.96/27
212.47.197.128/26
212.47.197.192/30
212.47.199.80/28
212.47.199.96/27
212.47.202.0/28
212.47.202.167/32
212.47.202.168/29
212.47.202.176/28
212.47.202.192/27
212.47.202.80/28
212.47.203.112/29
212.47.203.48/29
212.47.203.60/30
212.47.204.0/28
212.47.204.64/26
212.47.204.128/26
212.47.205.128/25
212.47.211.16/28
212.47.213.128/27
212.47.213.160/28
212.47.213.176/29
212.47.213.184/30
212.47.214.24/29
212.47.215.102/31
212.47.215.120/29
212.47.215.128/31
212.47.215.164/30
212.47.215.168/29
212.47.215.176/28
212.47.215.226/31
212.47.215.228/30
212.47.215.28/30
212.47.216.40/29
212.47.216.52/30
212.47.216.56/29
212.47.216.64/30
212.47.216.70/31
212.47.216.72/29
212.47.216.80/28
212.47.216.96/27
212.47.216.128/25
212.47.216.8/29
212.47.217.176/29
212.47.219.210/31
212.47.219.212/30
212.47.219.220/30
212.47.219.248/29
212.47.219.64/29
212.47.221.128/27
212.55.64.0/19
212.58.160.0/19
212.66.32.0/19
212.68.160.0/19
212.74.234.0/24
212.79.112.0/21
212.79.122.0/23
212.79.124.0/22
212.80.32.0/19
212.82.192.0/19
212.8.32.0/19
212.86.100.0/22
212.86.104.0/21
212.86.112.0/20
212.86.224.0/19
212.86.96.0/23
212.86.98.0/24
212.87.160.0/21
212.87.168.0/24
212.87.170.0/23
212.87.172.0/22
212.87.176.0/22
212.87.182.0/23
212.87.188.0/22
212.90.160.0/19
212.90.32.0/19
212.92.17.16/29
212.92.224.0/19
212.9.224.0/19
213.108.176.0/21
213.108.40.0/21
213.108.72.0/21
213.109.128.0/20
213.109.224.0/20
213.109.80.0/20
213.110.96.0/19
213.110.128.0/18
213.111.64.0/18
213.111.128.0/17
213.130.0.0/19
213.133.160.0/19
213.154.192.0/19
213.155.0.0/25
213.155.0.128/27
213.155.0.160/29
213.155.0.176/28
213.155.0.192/28
213.155.0.208/29
213.155.0.224/27
213.155.1.0/25
213.155.1.128/28
213.155.1.144/29
213.155.10.112/28
213.155.10.128/27
213.155.10.168/29
213.155.10.176/28
213.155.10.208/28
213.155.10.224/27
213.155.11.0/24
213.155.12.0/24
213.155.13.0/29
213.155.1.160/27
213.155.1.192/26
213.155.2.0/30
213.155.13.16/28
213.155.13.32/27
213.155.13.64/26
213.155.13.128/26
213.155.13.208/28
213.155.13.224/27
213.155.14.0/23
213.155.16.0/23
213.155.18.0/25
213.155.18.128/27
213.155.18.160/29
213.155.18.176/28
213.155.18.216/29
213.155.18.224/29
213.155.18.248/29
213.155.19.0/25
213.155.19.128/28
213.155.19.144/29
213.155.19.160/27
213.155.19.192/26
213.155.20.0/25
213.155.20.128/27
213.155.20.176/28
213.155.20.192/27
213.155.20.224/28
213.155.20.240/29
213.155.20.252/30
213.155.21.0/24
213.155.22.0/28
213.155.22.16/29
213.155.2.128/25
213.155.3.0/25
213.155.3.128/26
213.155.3.192/27
213.155.3.224/28
213.155.3.240/29
213.155.22.32/27
213.155.22.64/26
213.155.22.128/25
213.155.23.0/24
213.155.24.0/25
213.155.24.136/29
213.155.24.152/29
213.155.24.160/27
213.155.24.192/26
213.155.25.0/24
213.155.26.0/24
213.155.27.0/26
213.155.27.64/27
213.155.27.96/28
213.155.27.112/29
213.155.27.128/25
213.155.28.0/22
213.155.2.8/29
213.155.2.16/28
213.155.2.32/28
213.155.3.252/30
213.155.4.0/24
213.155.5.0/26
213.155.5.64/27
213.155.5.104/29
213.155.5.112/28
213.155.5.144/29
213.155.5.160/27
213.155.5.192/28
213.155.5.216/29
213.155.5.240/29
213.155.6.0/25
213.155.6.128/26
213.155.6.192/27
213.155.6.224/28
213.155.6.240/29
213.155.7.0/30
213.155.7.160/27
213.155.7.192/29
213.155.7.208/28
213.155.7.224/28
213.155.7.240/29
213.155.7.8/29
213.155.7.16/28
213.155.7.32/27
213.155.7.64/26
213.155.7.128/28
213.155.7.144/29
213.155.8.0/23
213.155.10.0/26
213.155.10.64/27
213.155.10.96/29
213.156.64.0/19
213.159.224.0/19
213.160.128.0/19
213.169.64.0/19
213.174.0.0/19
213.179.224.0/19
213.180.203.0/26
213.180.203.64/29
213.180.213.118/31
213.180.213.122/31
213.180.213.26/31
213.180.213.6/31
213.186.192.0/19
213.186.96.0/19
213.187.248.0/24
213.197.73.96/28
213.197.73.112/29
213.200.32.0/19
213.227.192.0/18
213.231.0.0/18
213.238.0.0/19
213.255.192.64/27
213.255.231.128/26
213.255.231.192/27
213.5.192.0/21
217.112.208.0/20
217.115.96.0/20
217.117.64.0/20
217.12.192.0/21
217.12.204.0/22
217.12.210.0/23
217.12.212.0/22
217.12.216.0/23
217.12.219.0/24
217.12.220.0/22
217.146.2.0/24
217.146.240.0/20
217.147.160.0/20
217.172.170.88/32
217.172.170.91/32
217.172.170.9/32
217.172.189.222/32
217.172.189.224/32
217.175.0.0/20
217.175.80.0/20
217.194.133.176/29
217.194.133.24/30
217.194.133.80/28
217.194.135.224/28
217.194.137.240/28
217.194.137.32/28
217.194.155.0/28
217.194.155.16/29
217.194.155.32/29
217.196.160.0/20
217.199.224.0/20
217.20.160.0/19
217.24.160.0/20
217.25.192.0/20
217.27.144.0/20
217.28.240.0/27
217.28.240.168/29
217.28.240.176/28
217.28.240.192/26
217.28.241.0/26
217.28.240.64/26
217.28.240.128/27
217.28.241.112/28
217.28.241.128/25
217.28.241.90/31
217.28.241.92/30
217.28.242.16/28
217.28.242.32/27
217.28.242.64/26
217.28.242.128/25
217.28.243.12/30
217.28.243.16/29
217.28.243.128/27
217.28.243.198/31
217.28.243.200/31
217.28.243.204/30
217.28.243.216/29
217.28.243.240/28
217.28.243.4/30
217.28.243.48/30
217.28.243.52/31
217.28.243.56/29
217.28.243.68/30
217.28.243.88/29
217.28.244.104/30
217.28.244.128/27
217.28.244.176/30
217.28.244.188/30
217.28.244.192/29
217.28.244.200/30
217.28.244.208/28
217.28.244.224/30
217.28.244.232/30
217.28.244.246/31
217.28.244.248/29
217.28.244.28/30
217.28.244.32/30
217.28.244.40/29
217.28.244.48/28
217.28.244.64/29
217.28.244.96/30
217.28.246.0/26
217.28.246.64/30
217.28.246.164/30
217.28.246.168/29
217.28.246.196/30
217.28.246.200/29
217.28.246.208/28
217.28.246.224/27
217.28.247.112/28
217.28.247.128/29
217.28.247.136/30
217.28.247.12/30
217.28.247.156/30
217.28.247.168/29
217.28.247.176/28
217.28.247.192/26
217.28.247.48/29
217.28.247.64/29
217.28.247.80/30
217.28.247.90/31
217.28.247.92/30
217.28.248.206/31
217.28.248.212/30
217.28.248.216/29
217.28.248.224/27
217.28.248.24/30
217.28.248.44/30
217.28.248.58/31
217.28.248.68/30
217.28.248.72/29
217.28.248.80/28
217.28.248.96/27
217.28.248.128/26
217.28.248.192/29
217.28.248.200/30
217.28.249.112/28
217.28.249.144/28
217.28.249.164/30
217.28.249.168/29
217.28.249.176/29
217.28.249.188/30
217.28.249.208/28
217.28.249.224/29
217.28.249.240/29
217.28.249.32/30
217.28.249.38/31
217.28.249.40/29
217.28.249.52/30
217.28.249.60/30
217.28.250.108/30
217.28.250.128/29
217.28.250.172/30
217.28.250.224/28
217.28.250.40/30
217.28.250.52/30
217.28.250.88/30
217.28.250.98/31
217.28.250.100/31
217.28.251.0/26
217.28.251.64/28
217.28.251.118/31
217.28.251.124/30
217.28.251.154/31
217.28.251.156/30
217.28.251.160/29
217.28.251.176/28
217.28.251.224/28
217.28.251.92/30
217.28.252.114/31
217.28.252.176/30
217.28.252.192/30
217.28.252.208/28
217.28.252.56/30
217.28.252.88/30
217.28.253.112/28
217.28.253.128/29
217.28.253.140/31
217.28.253.144/28
217.28.253.180/30
217.28.253.184/29
217.28.253.37/32
217.28.253.40/31
217.28.253.48/29
217.28.253.68/30
217.28.253.72/29
217.28.254.32/27
217.28.254.64/26
217.28.254.128/25
217.28.255.0/24
217.30.192.0/20
217.65.240.0/20
217.66.96.0/20
217.67.64.0/20
217.73.80.0/20
217.76.192.0/20
217.77.208.0/20
217.9.0.0/20
219.3.97.0/24
31.12.128.0/17
31.128.160.0/19
31.128.224.0/19
31.128.64.0/18
31.129.160.0/19
31.129.224.0/19
31.129.64.0/18
31.131.16.0/20
31.131.32.0/21
31.131.96.0/19
31.131.128.0/20
31.133.112.0/21
31.133.32.0/19
31.133.64.0/19
31.134.104.0/21
31.134.112.0/20
31.134.208.0/21
31.134.64.0/19
31.135.128.0/19
31.135.176.0/21
31.144.0.0/16
31.148.176.0/20
31.148.202.0/23
31.148.217.0/24
31.148.218.0/24
31.148.221.0/24
31.148.23.0/24
31.148.25.0/24
31.148.252.0/22
31.148.28.0/23
31.148.52.0/22
31.148.56.0/21
31.148.99.0/24
31.170.128.0/19
31.172.136.0/21
31.193.80.0/20
31.202.0.0/16
31.210.11.104/30
31.210.11.232/29
31.223.224.0/21
31.24.208.0/21
31.28.160.0/19
31.3.192.0/20
31.31.96.0/19
31.3.24.0/21
31.40.104.0/21
31.40.16.0/21
31.41.104.0/21
31.41.112.0/21
31.41.128.0/21
31.41.216.0/21
31.41.48.0/21
31.41.64.0/20
31.41.8.0/21
31.41.88.0/21
31.42.112.0/20
31.42.160.0/19
31.42.48.0/20
31.42.64.0/20
31.43.0.0/17
31.43.128.0/18
31.43.224.0/19
31.44.188.0/24
31.44.191.0/24
31.6.96.0/19
37.115.0.0/16
37.139.160.0/19
37.139.96.0/20
37.143.88.0/21
37.17.240.0/21
37.19.128.0/17
37.203.0.0/19
37.221.128.0/19
37.229.0.0/16
37.25.0.0/19
37.25.32.0/21
37.25.96.0/19
37.46.224.0/19
37.52.0.0/14
37.57.0.0/16
37.58.113.40/29
37.58.71.136/29
37.58.84.128/28
37.58.86.128/29
37.58.97.240/29
37.72.40.0/21
37.73.0.0/16
37.75.216.0/21
37.9.32.0/21
37.9.64.0/25
37.9.64.128/27
37.9.64.160/28
46.118.0.0/15
46.133.0.0/16
46.148.112.0/20
46.148.16.0/20
46.149.160.0/19
46.149.48.0/20
46.149.80.0/20
46.149.96.0/20
46.150.0.0/19
46.150.64.0/18
46.151.176.0/21
46.151.192.0/21
46.151.248.0/21
46.151.40.0/21
46.151.48.0/21
46.151.80.0/21
46.160.64.0/18
46.161.40.0/24
46.162.0.0/18
46.164.128.0/18
46.166.163.48/28
46.166.167.104/29
46.166.170.224/27
46.166.172.64/26
46.172.128.0/19
46.172.224.0/19
46.17.240.0/21
46.172.64.0/20
46.172.80.0/21
46.172.88.0/23
46.173.64.0/18
46.173.128.0/19
46.173.160.0/20
46.174.120.0/21
46.174.160.0/21
46.174.240.0/21
46.174.40.0/21
46.174.64.0/21
46.175.136.0/21
46.175.144.0/21
46.175.160.0/21
46.175.16.0/21
46.175.184.0/21
46.175.240.0/20
46.175.64.0/20
46.175.80.0/21
46.18.0.0/21
46.182.80.0/21
46.185.0.0/17
46.200.0.0/14
46.211.0.0/16
46.219.0.0/16
46.227.136.0/21
46.229.48.0/20
46.231.224.0/21
46.232.232.0/21
46.247.128.0/17
46.250.0.0/19
46.250.96.0/19
46.252.208.0/20
46.255.32.0/21
46.28.192.0/21
46.28.64.0/23
46.28.66.16/28
46.28.66.32/27
46.28.66.64/26
46.28.66.128/25
46.28.67.0/24
46.28.68.0/22
46.29.128.0/21
46.30.160.0/21
46.33.224.0/19
46.33.32.0/19
46.36.201.16/30
46.36.201.20/32
46.36.201.51/32
46.36.201.52/30
46.36.201.96/30
46.36.201.100/32
46.36.202.211/32
46.36.202.212/30
46.36.202.216/29
46.36.202.224/30
46.36.202.228/31
46.36.202.230/32
46.36.202.81/32
46.36.202.82/31
46.36.202.84/30
46.36.202.88/31
46.36.202.90/32
46.37.192.0/19
46.39.64.0/19
46.46.64.0/18
46.63.0.0/17
46.8.34.0/24
46.8.44.0/23
46.96.0.0/16
46.98.0.0/16
5.1.0.0/19
5.104.32.0/19
5.105.0.0/16
5.10.69.120/29
5.10.93.112/29
5.10.97.56/32
5.132.148.0/24
5.149.120.0/21
5.153.128.0/18
5.153.26.33/32
5.175.150.128/25
5.198.254.64/27
5.199.232.0/21
5.207.0.0/16
5.22.156.0/22
5.248.0.0/16
5.255.160.0/19
5.34.176.0/22
5.34.182.0/23
5.45.206.0/26
5.45.206.72/29
5.45.206.80/28
5.45.206.96/27
5.45.206.128/25
5.45.207.0/24
5.53.112.0/21
5.56.24.0/21
5.57.64.0/21
5.58.0.0/16
57.87.192.0/20
5.83.16.0/21
62.122.0.0/21
62.122.104.0/21
62.122.152.0/21
62.122.200.0/21
62.122.56.0/21
62.122.64.0/21
62.128.102.112/29
62.128.102.128/29
62.128.102.200/29
62.128.102.208/28
62.128.103.16/28
62.128.103.64/26
62.128.103.128/25
62.128.104.176/29
62.128.104.48/29
62.128.105.160/27
62.128.105.80/28
62.128.106.66/31
62.128.106.68/30
62.128.106.72/29
62.128.106.80/28
62.128.106.96/27
62.128.106.128/25
62.128.108.0/23
62.128.112.16/28
62.128.112.32/27
62.128.112.64/28
62.128.112.88/29
62.128.112.96/27
62.128.112.128/25
62.128.113.0/28
62.128.113.152/29
62.128.113.160/28
62.128.113.212/30
62.128.113.216/29
62.128.113.224/27
62.128.113.24/29
62.128.113.32/30
62.128.113.38/31
62.128.113.40/29
62.128.113.68/30
62.128.113.72/29
62.128.113.80/28
62.128.113.96/27
62.128.113.128/28
62.128.114.16/28
62.128.114.32/27
62.128.114.64/26
62.128.114.128/25
62.128.115.0/24
62.128.120.0/24
62.128.123.16/28
62.128.123.32/27
62.128.123.64/26
62.128.123.128/25
62.128.124.16/28
62.128.124.96/27
62.128.124.128/25
62.128.125.0/24
62.128.126.32/27
62.128.126.64/26
62.128.126.128/25
62.128.127.0/25
62.128.127.128/27
62.128.127.192/28
62.128.127.216/30
62.128.96.0/22
62.138.5.22/32
62.149.0.0/19
62.16.0.0/19
62.182.120.0/21
62.182.160.0/21
62.182.64.0/21
62.182.80.0/21
62.187.208.0/29
62.205.128.0/19
62.216.32.0/19
62.221.32.0/19
62.244.0.0/18
62.32.63.232/29
62.32.63.248/29
62.64.64.0/18
62.72.160.0/19
62.75.130.140/32
62.75.130.209/32
62.75.167.128/32
62.75.167.180/30
62.75.195.221/32
62.75.195.222/32
62.75.197.150/32
62.75.207.101/32
62.75.207.122/32
62.75.223.126/32
62.75.223.33/32
62.75.223.43/32
62.75.254.84/32
62.75.255.126/32
62.75.255.16/32
62.80.160.0/19
62.84.248.0/21
77.109.0.0/18
77.120.0.0/16
77.121.0.0/21
77.121.8.0/22
77.121.12.0/23
77.121.15.0/24
77.121.16.0/21
77.121.64.0/18
77.121.128.0/17
77.122.0.0/16
77.123.0.0/17
77.123.128.0/18
77.123.224.0/19
77.222.128.0/19
77.239.160.0/19
77.242.160.0/20
77.244.32.0/20
77.247.16.0/20
77.247.216.0/21
77.47.128.0/17
77.52.0.0/16
77.75.144.0/21
77.87.144.0/20
77.87.192.0/21
77.87.32.0/20
77.88.192.0/19
77.88.22.0/26
77.88.22.128/25
77.88.240.0/20
77.88.5.0/26
77.88.5.192/31
77.88.5.200/29
77.88.5.216/29
77.90.192.0/18
77.91.128.0/18
77.93.32.0/19
78.109.16.0/25
78.109.16.128/29
78.109.16.144/28
78.109.16.160/27
78.109.16.192/26
78.109.17.0/28
78.109.17.104/29
78.109.17.112/28
78.109.17.128/25
78.109.18.0/24
78.109.19.0/26
78.109.17.24/29
78.109.17.32/27
78.109.17.64/27
78.109.19.120/29
78.109.19.128/29
78.109.19.144/28
78.109.19.160/27
78.109.19.192/26
78.109.20.0/28
78.109.20.16/29
78.109.19.72/29
78.109.19.80/28
78.109.19.96/28
78.109.20.32/27
78.109.20.64/26
78.109.20.128/26
78.109.20.192/27
78.109.20.224/28
78.109.20.240/29
78.109.21.0/26
78.109.21.64/27
78.109.21.96/28
78.109.21.120/29
78.109.21.128/27
78.109.21.160/29
78.109.21.176/28
78.109.21.192/27
78.109.21.232/29
78.109.21.240/28
78.109.22.0/27
78.109.22.136/29
78.109.22.144/28
78.109.22.160/27
78.109.22.192/26
78.109.23.0/29
78.109.22.48/29
78.109.22.64/26
78.109.23.152/29
78.109.23.16/28
78.109.23.168/29
78.109.23.176/28
78.109.23.192/27
78.109.23.224/28
78.109.23.248/29
78.109.24.0/22
78.109.28.0/23
78.109.30.0/27
78.109.30.32/28
78.109.30.48/29
78.109.23.40/29
78.109.23.48/28
78.109.23.72/29
78.109.23.80/28
78.109.23.96/27
78.109.23.128/28
78.109.30.192/26
78.109.31.0/27
78.109.31.32/28
78.109.30.64/26
78.109.30.128/27
78.109.30.160/28
78.109.30.176/29
78.109.31.56/29
78.109.31.64/26
78.109.31.128/25
78.111.16.0/20
78.111.176.0/20
78.111.208.0/20
78.137.0.0/18
78.152.160.0/19
78.154.160.0/19
78.159.32.0/19
78.24.204.96/28
78.24.72.0/24
78.24.75.0/24
78.24.76.0/24
78.24.78.0/23
78.25.0.0/18
78.26.128.0/17
78.27.128.0/17
78.31.176.0/21
79.110.128.0/20
79.110.16.0/22
79.110.20.0/23
79.110.208.0/20
79.110.224.0/20
79.110.23.0/24
79.110.24.0/24
79.110.25.128/25
79.110.26.0/23
79.110.29.0/24
79.110.30.0/24
79.110.96.0/20
79.124.128.0/17
79.135.192.0/19
79.140.0.0/20
79.142.192.0/20
79.143.32.0/20
79.171.120.0/21
80.243.144.0/20
80.245.114.0/24
80.245.117.144/28
80.245.117.160/27
80.245.117.192/26
80.245.118.0/23
80.245.120.0/24
80.245.117.24/29
80.245.117.32/27
80.245.117.64/26
80.245.122.0/23
80.245.124.0/22
80.249.224.0/20
80.252.240.0/20
80.254.0.0/20
80.255.64.0/20
80.64.80.0/20
80.70.64.0/19
80.73.0.0/20
80.77.32.0/20
80.78.32.0/19
80.82.198.0/23
80.84.176.0/20
80.86.87.225/32
80.86.87.228/32
80.86.87.234/32
80.90.224.0/20
80.91.160.0/19
80.92.224.0/20
80.93.112.0/20
81.162.216.0/21
81.162.224.0/19
81.162.56.0/21
81.162.64.0/20
81.163.112.0/20
81.163.128.0/19
81.163.208.0/20
81.163.88.0/21
81.17.128.0/21
81.17.137.0/24
81.17.138.0/23
81.17.140.0/22
81.21.0.0/20
81.22.106.64/30
81.22.110.132/30
81.22.128.0/20
81.23.16.0/20
81.24.208.0/20
81.25.224.0/20
81.26.158.0/23
81.30.160.0/20
81.85.14.0/24
81.90.224.0/20
81.92.241.136/29
81.95.147.136/29
81.95.176.0/20
82.102.2.248/32
82.102.3.50/32
82.117.224.0/19
82.118.133.32/29
82.118.16.0/23
82.118.18.0/24
82.118.19.0/25
82.118.19.128/26
82.118.19.192/27
82.118.19.224/28
82.118.20.0/22
82.144.192.0/19
82.193.96.0/19
82.207.0.0/17
83.137.88.0/21
83.142.104.0/21
83.142.208.0/21
83.142.232.0/21
83.143.200.0/21
83.143.232.0/21
83.170.192.0/18
83.218.224.0/19
83.242.96.0/20
84.19.169.240/28
84.201.128.0/24
84.201.144.0/24
84.201.145.128/25
84.201.145.16/28
84.201.145.40/29
84.201.145.48/28
84.201.145.64/29
84.234.96.0/20
84.47.132.0/23
84.47.179.0/24
84.47.180.0/24
85.114.192.0/19
85.159.0.0/21
85.198.128.0/18
85.223.128.0/17
85.232.233.16/29
85.238.96.0/19
85.25.105.7/32
85.25.107.175/32
85.25.110.167/32
85.25.110.86/32
85.25.116.103/32
85.25.116.49/32
85.25.13.91/32
85.25.13.97/32
85.25.13.98/32
85.25.14.249/32
85.25.15.141/32
85.25.15.197/32
85.25.15.208/32
85.25.15.222/32
85.25.15.24/32
85.25.15.26/32
85.25.154.105/32
85.25.154.107/32
85.25.154.108/32
85.25.15.4/32
85.25.155.219/32
85.25.155.220/31
85.25.156.88/29
85.25.157.128/32
85.25.157.141/32
85.25.159.16/32
85.25.159.78/32
85.25.159.93/32
85.25.166.96/27
85.25.19.146/32
85.25.252.232/32
85.25.252.252/32
85.25.253.15/32
85.25.253.26/32
85.25.253.47/32
85.25.254.53/32
85.25.27.183/32
85.25.27.184/32
85.25.27.93/32
85.25.41.76/32
85.255.176.0/21
85.25.76.44/32
85.25.79.59/32
85.25.79.6/32
85.25.79.92/32
85.25.79.99/32
85.25.97.240/32
85.90.192.0/19
86.106.83.0/24
86.111.224.0/21
86.111.64.0/19
87.238.152.0/21
87.244.128.0/18
87.245.216.0/25
87.245.216.128/26
87.245.216.240/28
87.245.217.0/29
87.245.217.128/26
87.245.217.16/29
87.245.220.240/28
87.245.221.0/25
87.245.222.0/25
87.245.222.128/26
87.245.222.192/27
87.245.237.0/29
87.245.237.136/29
87.245.237.144/28
87.245.237.160/27
87.245.237.192/28
87.245.237.16/29
87.245.237.216/29
87.245.237.224/27
87.245.237.32/29
87.245.237.48/28
87.245.237.64/26
87.245.239.0/28
87.245.239.16/29
87.245.239.160/27
87.245.239.192/26
87.245.239.32/28
87.245.239.56/29
87.245.239.64/29
87.245.239.80/29
87.245.239.96/27
87.245.239.128/28
87.245.243.128/26
87.245.243.192/27
87.245.243.224/29
87.245.247.0/27
87.245.247.32/28
87.245.247.48/29
87.245.247.136/29
87.245.247.152/29
87.245.247.176/28
87.245.247.192/29
87.245.247.208/28
87.245.247.224/28
87.245.247.248/29
87.245.247.64/26
87.250.239.70/31
87.76.64.0/18
87.76.128.0/17
88.135.192.0/18
88.154.0.0/15
88.202.107.112/28
88.202.111.112/28
88.214.64.0/18
88.81.224.0/19
89.105.224.0/19
89.162.128.0/17
89.163.174.128/27
89.184.64.0/19
89.185.0.0/19
89.187.0.0/19
89.19.96.0/19
89.200.232.0/21
89.200.248.0/21
89.209.0.0/16
89.21.64.0/19
89.22.200.0/21
89.22.40.0/21
89.251.16.0/20
89.252.0.0/18
89.28.200.0/21
91.102.176.0/21
91.103.120.0/21
91.105.204.0/22
91.123.144.0/20
91.124.0.0/16
91.142.160.0/20
91.145.192.0/18
91.189.128.0/21
91.189.152.0/21
91.192.104.0/23
91.192.128.0/21
91.192.136.0/22
91.192.152.0/21
91.192.160.0/22
91.192.180.0/22
91.192.184.0/22
91.192.200.0/23
91.192.216.0/22
91.192.44.0/22
91.193.124.0/22
91.193.128.0/22
91.193.164.0/22
91.193.172.0/22
91.193.204.0/22
91.193.252.0/22
91.193.32.0/22
91.193.68.0/22
91.193.76.0/22
91.193.80.0/22
91.193.8.0/22
91.194.134.0/23
91.194.162.0/23
91.194.168.0/23
91.194.250.0/23
91.194.34.0/23
91.194.40.0/23
91.194.50.0/23
91.194.56.0/23
91.194.72.0/23
91.194.78.0/23
91.194.80.0/23
91.194.88.0/23
91.195.10.0/23
91.195.12.0/23
91.195.120.0/23
91.195.156.0/23
91.195.172.0/23
91.195.184.0/23
91.195.20.0/23
91.195.2.0/23
91.195.214.0/23
91.195.244.0/23
91.195.248.0/23
91.195.52.0/23
91.195.68.0/23
91.195.74.0/23
91.195.90.0/23
91.195.96.0/23
91.196.0.0/22
91.196.120.0/22
91.196.148.0/22
91.196.156.0/22
91.196.160.0/21
91.196.176.0/22
91.196.192.0/21
91.196.228.0/22
91.196.52.0/22
91.196.60.0/22
91.196.80.0/22
91.196.88.0/21
91.196.96.0/21
91.197.128.0/21
91.197.144.0/22
91.197.16.0/22
91.197.168.0/22
91.197.184.0/22
91.197.216.0/21
91.197.236.0/22
91.197.24.0/22
91.197.252.0/22
91.197.4.0/22
91.197.48.0/22
91.197.56.0/22
91.197.68.0/22
91.197.80.0/22
91.198.10.0/24
91.198.101.0/24
91.198.1.0/24
91.198.116.0/24
91.198.133.0/24
91.198.140.0/24
91.198.143.0/24
91.198.175.0/24
91.198.188.0/24
91.198.233.0/24
91.198.235.0/24
91.198.247.0/24
91.198.249.0/24
91.198.31.0/24
91.198.34.0/24
91.198.36.0/24
91.198.40.0/24
91.198.4.0/24
91.198.50.0/24
91.198.83.0/24
91.199.106.0/24
91.199.112.0/24
91.199.115.0/24
91.199.13.0/24
91.199.138.0/23
91.199.143.0/24
91.199.144.0/24
91.199.182.0/24
91.199.188.0/24
91.199.194.0/24
91.199.206.0/24
91.199.222.0/24
91.199.245.0/24
91.199.28.0/24
91.199.33.0/24
91.199.35.0/24
91.199.37.0/24
91.199.54.0/24
91.199.91.0/24
91.199.92.0/23
91.200.0.0/20
91.200.112.0/22
91.200.124.0/22
91.200.156.0/22
91.200.160.0/22
91.200.180.0/22
91.200.200.0/22
91.200.212.0/22
91.200.220.0/22
91.200.232.0/22
91.200.248.0/22
91.200.40.0/21
91.200.52.0/22
91.200.56.0/22
91.200.60.0/24
91.200.72.0/22
91.200.80.0/23
91.200.82.0/24
91.201.108.0/22
91.201.144.0/22
91.201.156.0/22
91.201.168.0/22
91.201.176.0/21
91.201.188.0/22
91.201.202.0/23
91.201.224.0/22
91.201.232.0/22
91.201.236.0/24
91.201.240.0/21
91.201.24.0/22
91.201.36.0/22
91.201.68.0/22
91.201.84.0/22
91.202.0.0/22
91.202.104.0/21
91.202.128.0/21
91.202.144.0/22
91.202.160.0/22
91.202.208.0/21
91.202.240.0/22
91.202.72.0/22
91.202.8.0/22
91.203.107.0/24
91.203.112.0/22
91.203.12.0/22
91.203.136.0/21
91.203.144.0/22
91.203.164.0/22
91.203.24.0/22
91.203.4.0/22
91.203.48.0/22
91.203.60.0/22
91.203.88.0/22
91.204.112.0/22
91.204.120.0/22
91.204.12.0/24
91.204.132.0/22
91.204.180.0/22
91.204.196.0/22
91.204.212.0/22
91.204.248.0/22
91.204.36.0/22
91.204.60.0/22
91.204.76.0/22
91.204.84.0/22
91.204.92.0/22
91.205.156.0/22
91.205.16.0/22
91.205.204.0/22
91.205.216.0/22
91.205.4.0/22
91.205.64.0/22
91.206.110.0/23
91.206.124.0/23
91.206.166.0/23
91.206.186.0/23
91.206.200.0/23
91.206.218.0/23
91.206.226.0/23
91.206.252.0/23
91.206.30.0/23
91.206.32.0/23
91.206.4.0/23
91.206.48.0/23
91.207.104.0/23
91.207.116.0/23
91.207.122.0/23
91.207.146.0/23
91.207.182.0/23
91.207.194.0/23
91.207.204.0/23
91.207.210.0/23
91.207.218.0/23
91.207.224.0/23
91.207.244.0/23
91.207.26.0/23
91.207.44.0/22
91.207.54.0/23
91.207.60.0/23
91.207.66.0/23
91.207.88.0/23
91.208.115.0/24
91.208.116.0/24
91.208.127.0/24
91.208.138.0/24
91.208.145.0/24
91.208.153.0/24
91.208.154.0/24
91.208.194.0/24
91.208.198.0/24
91.208.231.0/24
91.208.25.0/24
91.208.251.0/24
91.208.52.0/24
91.208.59.0/24
91.208.65.0/24
91.208.94.0/24
91.208.97.0/24
91.209.1.0/24
91.209.11.0/24
91.209.118.0/24
91.209.126.0/24
91.209.138.0/23
91.209.157.0/24
91.209.176.0/24
91.209.193.0/24
91.209.201.0/24
91.209.202.0/23
91.209.206.0/24
91.209.210.0/24
91.209.214.0/24
91.209.226.0/24
91.209.235.0/24
91.209.239.0/24
91.209.24.0/24
91.209.249.0/24
91.209.36.0/24
91.209.51.0/24
91.209.54.0/23
91.209.64.0/24
91.209.90.0/24
91.209.96.0/24
91.210.108.0/22
91.210.116.0/22
91.210.144.0/22
91.210.156.0/22
91.210.164.0/22
91.210.188.0/22
91.210.20.0/22
91.210.248.0/22
91.210.28.0/22
91.210.32.0/21
91.210.8.0/22
91.211.116.0/22
91.211.120.0/22
91.211.12.0/22
91.211.16.0/22
91.211.132.0/22
91.211.172.0/22
91.211.176.0/22
91.211.204.0/22
91.211.212.0/22
91.211.68.0/22
91.212.124.0/23
91.212.154.0/24
91.212.173.0/24
91.212.174.0/24
91.212.177.0/24
91.212.194.0/24
91.212.203.0/24
91.212.214.0/24
91.212.22.0/24
91.212.248.0/24
91.212.253.0/24
91.212.34.0/24
91.212.56.0/24
91.212.80.0/24
91.213.119.0/24
91.213.125.0/24
91.213.149.0/24
91.213.154.0/24
91.213.175.0/24
91.213.182.0/24
91.213.185.0/24
91.213.187.0/24
91.213.192.0/24
91.213.209.0/24
91.213.231.0/24
91.213.33.0/24
91.213.59.0/24
91.213.62.0/24
91.213.8.0/24
91.213.92.0/24
91.214.112.0/22
91.214.124.0/22
91.214.132.0/22
91.214.136.0/22
91.214.160.0/22
91.214.16.0/22
91.214.176.0/21
91.214.208.0/22
91.214.232.0/22
91.214.244.0/22
91.214.248.0/22
91.214.28.0/22
91.214.48.0/22
91.214.80.0/21
91.215.124.0/22
91.215.144.0/22
91.215.24.0/22
91.215.248.0/22
91.215.52.0/22
91.215.56.0/22
91.215.68.0/22
91.215.8.0/22
91.216.106.0/24
91.216.133.0/24
91.216.135.0/24
91.216.15.0/24
91.216.161.0/24
91.216.165.0/24
91.216.173.0/24
91.216.196.0/24
91.216.22.0/24
91.216.231.0/24
91.216.232.0/24
91.216.237.0/24
91.216.240.0/24
91.216.244.0/24
91.216.250.0/23
91.216.28.0/24
91.216.61.0/24
91.216.94.0/24
91.217.100.0/23
91.217.10.0/23
91.217.12.0/23
91.217.106.0/23
91.217.112.0/23
91.217.144.0/24
91.217.166.0/24
91.217.179.0/24
91.217.183.0/24
91.217.197.0/24
91.217.240.0/24
91.217.244.0/24
91.217.254.0/24
91.217.4.0/23
91.217.58.0/23
91.217.60.0/23
91.217.66.0/23
91.217.68.0/23
91.217.90.0/23
91.218.104.0/22
91.218.12.0/22
91.218.16.0/22
91.218.192.0/22
91.218.212.0/22
91.218.28.0/22
91.218.32.0/22
91.218.44.0/22
91.218.48.0/22
91.218.72.0/22
91.218.88.0/22
91.218.96.0/22
91.219.140.0/22
91.219.144.0/22
91.219.168.0/22
91.219.196.0/22
91.219.220.0/22
91.219.252.0/22
91.219.28.0/22
91.219.32.0/22
91.219.52.0/22
91.219.60.0/22
91.219.80.0/22
91.220.104.0/24
91.220.106.0/24
91.220.113.0/24
91.220.140.0/24
91.220.151.0/24
91.220.161.0/24
91.220.163.0/24
91.220.174.0/24
91.220.190.0/24
91.220.198.0/24
91.220.204.0/24
91.220.230.0/24
91.220.235.0/24
91.220.252.0/23
91.220.255.0/24
91.220.3.0/24
91.220.60.0/23
91.220.6.0/24
91.220.80.0/24
91.220.91.0/24
91.221.124.0/23
91.221.132.0/23
91.221.136.0/23
91.221.14.0/23
91.221.154.0/23
91.221.166.0/23
91.221.178.0/23
91.221.190.0/23
91.221.210.0/23
91.221.218.0/23
91.221.234.0/23
91.221.252.0/23
91.221.6.0/23
91.221.64.0/23
91.221.74.0/23
91.221.84.0/23
91.222.0.0/22
91.222.112.0/22
91.222.12.0/22
91.222.16.0/22
91.222.136.0/22
91.222.152.0/22
91.222.168.0/21
91.222.180.0/22
91.222.220.0/22
91.222.244.0/22
91.222.248.0/21
91.222.32.0/21
91.222.40.0/22
91.222.60.0/22
91.222.64.0/22
91.222.76.0/22
91.222.80.0/22
91.223.102.0/23
91.223.110.0/24
91.223.112.0/24
91.223.122.0/24
91.223.127.0/24
91.223.133.0/24
91.223.136.0/24
91.223.149.0/24
91.223.152.0/24
91.223.177.0/24
91.223.180.0/24
91.223.19.0/24
91.223.205.0/24
91.223.214.0/24
91.223.216.0/24
91.223.223.0/24
91.223.227.0/24
91.223.234.0/24
91.223.27.0/24
91.223.30.0/24
91.223.53.0/24
91.223.59.0/24
91.223.77.0/24
91.223.86.0/24
91.223.88.0/24
91.223.97.0/24
91.224.112.0/23
91.224.156.0/23
91.224.16.0/23
91.224.178.0/23
91.224.200.0/22
91.224.2.0/23
91.224.222.0/23
91.224.24.0/23
91.224.252.0/22
91.224.44.0/23
91.224.68.0/23
91.224.74.0/23
91.224.78.0/23
91.224.8.0/22
91.224.84.0/23
91.224.96.0/23
91.225.108.0/22
91.225.116.0/22
91.225.120.0/22
91.225.136.0/21
91.225.144.0/22
91.225.152.0/22
91.225.160.0/20
91.225.196.0/22
91.225.200.0/22
91.225.220.0/22
91.225.224.0/22
91.225.232.0/22
91.225.36.0/22
91.225.40.0/21
91.225.48.0/22
91.225.4.0/22
91.225.56.0/22
91.225.72.0/22
91.225.80.0/22
91.225.88.0/21
91.226.132.0/22
91.226.138.0/23
91.226.14.0/23
91.226.187.0/24
91.226.190.0/23
91.226.192.0/24
91.226.201.0/24
91.226.207.0/24
91.226.212.0/23
91.226.252.0/22
91.226.34.0/23
91.226.4.0/23
91.226.42.0/23
91.226.44.0/23
91.226.56.0/22
91.227.150.0/23
91.227.180.0/22
91.227.206.0/23
91.227.254.0/24
91.227.42.0/24
91.227.69.0/24
91.228.12.0/22
91.228.122.0/23
91.228.146.0/23
91.228.228.0/23
91.228.236.0/24
91.228.58.0/23
91.228.68.0/22
91.229.101.0/24
91.229.115.0/24
91.229.120.0/22
91.229.128.0/23
91.229.167.0/24
91.229.204.0/22
91.229.216.0/22
91.229.226.0/24
91.229.240.0/22
91.229.52.0/22
91.229.66.0/23
91.229.76.0/22
91.230.121.0/24
91.230.198.0/23
91.230.220.0/24
91.230.25.0/24
91.230.28.0/22
91.230.92.0/23
91.231.1.0/24
91.231.127.0/24
91.231.142.0/23
91.231.148.0/22
91.231.160.0/24
91.231.170.0/24
91.231.185.0/24
91.231.206.0/24
91.231.229.0/24
91.231.240.0/24
91.231.40.0/22
91.231.54.0/23
91.231.69.0/24
91.231.84.0/22
91.231.98.0/23
91.232.0.0/22
91.232.103.0/24
91.232.127.0/24
91.232.128.0/24
91.232.157.0/24
91.232.158.0/23
91.232.177.0/24
91.232.178.0/23
91.232.199.0/24
91.232.21.0/24
91.232.238.0/24
91.232.240.0/23
91.232.28.0/22
91.233.108.0/22
91.233.123.0/24
91.233.127.0/24
91.233.140.0/24
91.233.151.0/24
91.233.17.0/24
91.233.48.0/23
91.233.90.0/23
91.233.96.0/21
91.234.0.0/22
91.234.136.0/22
91.234.140.0/23
91.234.196.0/22
91.234.20.0/24
91.234.208.0/22
91.234.226.0/23
91.234.24.0/22
91.234.28.0/23
91.234.31.0/24
91.234.32.0/22
91.234.37.0/24
91.234.40.0/22
91.234.47.0/24
91.234.72.0/21
91.234.84.0/22
91.234.88.0/22
91.234.98.0/23
91.235.102.0/24
91.235.12.0/22
91.235.128.0/23
91.235.142.0/23
91.235.182.0/24
91.235.196.0/22
91.235.224.0/22
91.235.46.0/24
91.235.67.0/24
91.235.68.0/22
91.235.84.0/22
91.236.114.0/24
91.236.118.0/23
91.236.126.0/23
91.236.134.0/23
91.236.138.0/23
91.236.156.0/22
91.236.171.0/24
91.236.184.0/23
91.236.213.0/24
91.236.221.0/24
91.236.224.0/22
91.236.248.0/22
91.236.36.0/24
91.236.96.0/22
91.237.0.0/20
91.237.107.0/24
91.237.108.0/22
91.237.114.0/23
91.237.116.0/24
91.237.119.0/24
91.237.120.0/21
91.237.128.0/23
91.237.142.0/24
91.237.152.0/24
91.237.164.0/22
91.237.182.0/23
91.237.204.0/22
91.237.208.0/24
91.237.232.0/22
91.237.240.0/21
91.237.24.0/22
91.237.250.0/24
91.237.40.0/23
91.237.64.0/24
91.238.100.0/22
91.238.104.0/23
91.238.132.0/24
91.238.146.0/23
91.238.16.0/23
91.238.192.0/22
91.238.23.0/24
91.238.4.0/23
91.238.9.0/24
91.239.104.0/22
91.239.136.0/22
91.239.150.0/24
91.239.160.0/22
91.239.187.0/24
91.239.190.0/24
91.239.232.0/22
91.239.241.0/24
91.239.48.0/22
91.239.74.0/24
91.239.76.0/22
91.239.80.0/22
91.239.95.0/24
91.240.140.0/22
91.240.145.0/24
91.240.18.0/23
91.240.190.0/23
91.240.244.0/24
91.240.48.0/22
91.240.96.0/22
91.241.160.0/19
91.241.192.0/18
91.241.71.0/24
91.241.80.0/22
91.241.96.0/19
91.242.192.0/21
91.242.208.0/22
91.242.222.0/24
91.242.224.0/19
91.243.0.0/19
91.242.52.0/22
91.243.192.0/19
91.244.0.0/18
91.244.118.0/23
91.244.124.0/24
91.244.127.0/24
91.244.128.0/19
91.244.232.0/22
91.244.69.0/24
91.245.213.0/24
91.245.216.0/23
91.245.223.0/24
91.245.72.0/21
91.245.96.0/19
91.246.128.0/19
91.246.220.0/22
91.246.224.0/19
91.246.32.0/19
91.246.4.0/22
91.247.160.0/19
91.247.221.0/24
91.247.224.0/22
91.247.32.0/19
91.247.76.0/22
91.247.80.0/20
91.250.0.0/18
91.90.196.0/22
91.90.200.0/21
91.90.208.0/20
91.90.8.0/21
91.90.16.0/21
92.112.0.0/15
92.240.96.0/19
92.242.96.0/19
92.244.96.0/19
92.249.64.0/18
92.253.200.0/25
92.38.34.0/24
92.38.40.0/23
92.38.48.0/22
92.38.96.0/19
92.52.128.0/18
92.60.176.0/20
92.63.202.0/24
93.115.31.112/28
93.115.31.128/28
93.115.31.152/29
93.126.64.0/18
93.127.0.0/17
93.157.24.0/21
93.157.8.0/21
93.158.161.0/25
93.170.0.0/23
93.170.114.0/23
93.170.116.0/22
93.170.123.0/24
93.170.132.0/23
93.170.135.0/24
93.170.136.0/23
93.170.140.0/23
93.170.144.0/20
93.170.15.0/24
93.170.168.0/22
93.170.175.0/24
93.170.186.0/24
93.170.188.0/23
93.170.208.0/23
93.170.25.0/24
93.170.27.0/24
93.170.32.0/23
93.170.35.0/24
93.170.4.0/24
93.170.48.0/22
93.170.54.0/23
93.170.64.0/21
93.170.75.0/24
93.170.76.0/24
93.170.80.0/23
93.170.88.0/24
93.170.97.0/24
93.171.128.0/22
93.171.132.0/23
93.171.137.0/24
93.171.138.0/24
93.171.152.0/24
93.171.158.0/23
93.171.163.0/24
93.171.170.0/23
93.171.172.0/24
93.171.185.0/24
93.171.205.0/24
93.171.209.0/24
93.171.218.0/24
93.171.225.0/24
93.171.232.0/22
93.171.240.0/22
93.171.245.0/24
93.171.246.0/23
93.171.248.0/21
93.171.5.0/24
93.171.64.0/20
93.175.192.0/19
93.175.224.0/20
93.178.192.0/18
93.179.66.0/24
93.180.192.0/18
93.183.192.0/18
93.185.208.0/20
93.188.32.0/21
93.190.176.0/21
93.190.40.0/21
93.72.0.0/15
93.74.0.0/16
93.75.0.0/17
93.75.128.0/19
93.75.160.0/21
93.75.176.0/20
93.75.192.0/18
93.76.0.0/17
93.76.160.0/19
93.76.192.0/18
93.77.0.0/17
93.77.128.0/19
93.77.192.0/18
93.78.0.0/16
93.79.0.0/18
93.79.64.0/19
93.79.96.0/21
93.79.112.0/20
93.79.128.0/17
93.88.48.0/20
93.89.208.0/20
93.92.43.0/24
93.94.41.88/31
93.95.184.0/21
94.100.208.0/20
94.124.160.0/22
94.124.164.0/24
94.124.166.0/23
94.125.120.0/21
94.130.0.0/15
94.153.0.0/16
94.154.112.0/20
94.154.192.0/18
94.154.32.0/20
94.158.144.0/20
94.158.32.0/20
94.158.64.0/19
94.178.0.0/15
94.199.160.0/21
94.230.192.0/20
94.231.176.0/20
94.231.32.0/20
94.231.64.0/20
94.23.190.204/30
94.232.176.0/21
94.232.208.0/21
94.232.72.0/21
94.240.128.0/18
94.244.0.0/18
94.244.128.0/18
94.247.224.0/21
94.248.0.0/18
94.27.0.0/17
94.45.32.0/19
94.45.64.0/18
94.45.128.0/19
94.46.10.39/32
94.46.117.32/32
94.46.117.64/32
94.46.119.232/32
94.46.121.41/32
94.46.121.87/32
94.46.124.30/32
94.46.127.42/32
94.46.143.97/32
94.46.48.112/32
94.46.50.177/32
94.46.55.219/32
94.46.8.145/32
94.46.9.103/32
94.74.64.0/18
94.76.64.0/18
95.108.207.0/27
95.108.207.128/25
95.109.128.0/17
95.111.128.0/17
95.132.0.0/14
95.141.20.16/28
95.141.27.0/24
95.158.0.0/18
95.164.0.0/16
95.169.0.0/19
95.181.182.0/24
95.215.104.0/22
95.215.124.0/22
95.215.144.0/22
95.215.156.0/22
95.215.164.0/22
95.215.216.0/22
95.215.223.0/24
95.215.36.0/22
95.215.40.0/22
95.215.4.0/22
95.215.48.0/22
95.215.92.0/22
95.216.0.0/15
95.46.107.0/24
95.46.108.0/24
95.46.114.0/24
95.46.120.0/23
95.46.126.0/24
95.46.140.0/23
95.46.155.0/24
95.46.160.0/22
95.46.168.0/21
95.46.6.0/24
95.46.76.0/22
95.46.8.0/21
95.46.96.0/24
95.46.98.0/23
95.47.104.0/21
95.47.112.0/22
95.47.116.0/24
95.47.124.0/22
95.47.136.0/23
95.47.142.0/23
95.47.148.0/22
95.47.156.0/24
95.47.161.0/24
95.47.162.0/23
95.47.167.0/24
95.47.190.0/24
95.47.204.0/22
95.47.253.0/24
95.47.255.0/24
95.47.56.0/24
95.47.98.0/24
95.67.0.0/17
95.69.128.0/17
95.81.0.0/18
