109.235.203.208/29
154.73.232.0/22
155.0.0.0/16
159.253.149.160/29
159.253.152.104/29
159.8.22.208/29
164.160.12.0/22
164.160.56.0/22
165.56.0.0/13
185.25.209.64/26
193.220.124.144/29
196.12.12.0/22
196.13.104.0/24
196.223.2.0/24
196.41.74.0/24
196.43.193.0/24
196.46.124.0/22
196.46.18.0/23
196.46.192.0/19
197.158.128.0/18
197.212.0.0/15
197.220.0.0/19
197.220.192.0/18
197.231.244.0/22
213.255.195.200/29
217.113.82.0/27
217.113.82.32/28
217.194.133.96/28
217.194.147.152/29
217.194.149.64/29
41.191.116.0/22
41.215.176.0/20
41.216.0.0/19
41.216.64.0/19
41.222.16.0/21
41.222.240.0/22
41.223.116.0/22
41.60.0.0/16
41.63.0.0/18
41.72.96.0/19
41.75.240.0/20
41.77.0.0/21
41.78.112.0/22
45.212.0.0/14
5.11.12.0/24
5.11.14.128/25
5.34.169.184/29
57.85.64.0/20
62.56.216.0/23
77.246.62.128/26
77.246.63.128/25
80.78.30.120/29
80.88.151.224/29
80.92.49.208/28
81.199.112.0/24
81.199.115.32/27
81.199.193.0/24
81.199.64.0/21
83.229.109.248/29
83.229.17.0/29
83.229.17.120/29
83.229.22.224/29
83.229.23.112/29
83.229.23.192/29
83.229.23.40/29
83.229.36.8/29
83.229.58.112/29
